<?xml version="1.0" encoding="UTF-8"?>
<kml xmlns="http://www.opengis.net/kml/2.2">
  <Document>
    <name>Directions from Bear Cove Ferry Terminal, Ferry Ramp, Port Hardy, BC to 100 BC-20, Bella Coola, BC V0T 1C0, Canada</name>
    <Style id="icon-1899-DB4436-nodesc-normal">
      <IconStyle>
        <color>ff3644db</color>
        <scale>1</scale>
        <Icon>
          <href>http://www.gstatic.com/mapspro/images/stock/503-wht-blank_maps.png</href>
        </Icon>
        <hotSpot x="32" xunits="pixels" y="64" yunits="insetPixels"/>
      </IconStyle>
      <LabelStyle>
        <scale>0</scale>
      </LabelStyle>
      <BalloonStyle>
        <text><![CDATA[<h3>$[name]</h3>]]></text>
      </BalloonStyle>
    </Style>
    <Style id="icon-1899-DB4436-nodesc-highlight">
      <IconStyle>
        <color>ff3644db</color>
        <scale>1</scale>
        <Icon>
          <href>http://www.gstatic.com/mapspro/images/stock/503-wht-blank_maps.png</href>
        </Icon>
        <hotSpot x="32" xunits="pixels" y="64" yunits="insetPixels"/>
      </IconStyle>
      <LabelStyle>
        <scale>1</scale>
      </LabelStyle>
      <BalloonStyle>
        <text><![CDATA[<h3>$[name]</h3>]]></text>
      </BalloonStyle>
    </Style>
    <StyleMap id="icon-1899-DB4436-nodesc">
      <Pair>
        <key>normal</key>
        <styleUrl>#icon-1899-DB4436-nodesc-normal</styleUrl>
      </Pair>
      <Pair>
        <key>highlight</key>
        <styleUrl>#icon-1899-DB4436-nodesc-highlight</styleUrl>
      </Pair>
    </StyleMap>
    <Style id="line-1267FF-5000-nodesc-normal">
      <LineStyle>
        <color>ffff6712</color>
        <width>5</width>
      </LineStyle>
      <BalloonStyle>
        <text><![CDATA[<h3>$[name]</h3>]]></text>
      </BalloonStyle>
    </Style>
    <Style id="line-1267FF-5000-nodesc-highlight">
      <LineStyle>
        <color>ffff6712</color>
        <width>7.5</width>
      </LineStyle>
      <BalloonStyle>
        <text><![CDATA[<h3>$[name]</h3>]]></text>
      </BalloonStyle>
    </Style>
    <StyleMap id="line-1267FF-5000-nodesc">
      <Pair>
        <key>normal</key>
        <styleUrl>#line-1267FF-5000-nodesc-normal</styleUrl>
      </Pair>
      <Pair>
        <key>highlight</key>
        <styleUrl>#line-1267FF-5000-nodesc-highlight</styleUrl>
      </Pair>
    </StyleMap>
    <Placemark>
      <name>Directions from Bear Cove Ferry Terminal, Ferry Ramp, Port Hardy, BC to 100 BC-20, Bella Coola, BC V0T 1C0, Canada</name>
      <styleUrl>#line-1267FF-5000-nodesc</styleUrl>
      <LineString>
        <tessellate>1</tessellate>
        <coordinates>
          -127.45607,50.7255,0
          -127.45671,50.72555,0
          -127.4572,50.7257,0
          -127.45917,50.7259,0
          -127.46056,50.72635,0
          -127.46089,50.72664,0
          -127.46336,50.72763,0
          -127.46515,50.72847,0
          -127.46732,50.73049,0
          -127.46848,50.73232,0
          -127.46873,50.75387,0
          -127.47011,50.76469,0
          -127.47612,50.77551,0
          -127.49718,50.78875,0
          -127.51988,50.79637,0
          -127.53721,50.80219,0
          -127.5835,50.80978,0
          -127.60779,50.81979,0
          -127.62654,50.82709,0
          -127.63302,50.83261,0
          -127.63579,50.83667,0
          -127.63579,50.84015,0
          -127.63584,50.84043,0
          -127.63671,50.84479,0
          -127.64088,50.85205,0
          -127.6455,50.85698,0
          -127.64781,50.86075,0
          -127.64966,50.86917,0
          -127.65475,50.88223,0
          -127.65752,50.88774,0
          -127.66076,50.89209,0
          -127.66585,50.89731,0
          -127.67279,50.90341,0
          -127.67927,50.90921,0
          -127.68945,50.91849,0
          -127.69222,50.92149,0
          -127.72924,50.96144,0
          -127.76194,50.99994,0
          -127.76301,51.00119,0
          -127.79077,51.02934,0
          -127.80974,51.04733,0
          -127.82779,51.06444,0
          -127.83956,51.07543,0
          -127.84676,51.08214,0
          -127.85462,51.0894,0
          -127.85879,51.09404,0
          -127.86249,51.09955,0
          -127.86665,51.10594,0
          -127.87035,51.11377,0
          -127.87312,51.12161,0
          -127.87474,51.12705,0
          -127.88169,51.15986,0
          -127.88882,51.1935,0
          -127.8961,51.2493,0
          -127.89625,51.2504,0
          -127.89757,51.26782,0
          -127.89826,51.2739,0
          -127.89872,51.28041,0
          -127.89895,51.28374,0
          -127.89894,51.2888,0
          -127.89825,51.29329,0
          -127.89685,51.29893,0
          -127.89593,51.30197,0
          -127.89523,51.30399,0
          -127.89291,51.30978,0
          -127.89175,51.31209,0
          -127.87738,51.32916,0
          -127.87172,51.33555,0
          -127.86971,51.33781,0
          -127.85655,51.35272,0
          -127.85232,51.35769,0
          -127.8462,51.36485,0
          -127.8415,51.3704,0
          -127.83351,51.37975,0
          -127.82646,51.38779,0
          -127.81753,51.39802,0
          -127.81612,51.40036,0
          -127.81282,51.40693,0
          -127.81047,51.41424,0
          -127.81,51.41625,0
          -127.80906,51.42023,0
          -127.80859,51.42389,0
          -127.80858,51.42652,0
          -127.80834,51.43528,0
          -127.80905,51.43879,0
          -127.80951,51.44245,0
          -127.81115,51.45136,0
          -127.81326,51.45808,0
          -127.8149,51.4632,0
          -127.81889,51.4708,0
          -127.82123,51.47489,0
          -127.82194,51.47664,0
          -127.82639,51.48409,0
          -127.83203,51.49111,0
          -127.83437,51.49418,0
          -127.84094,51.50061,0
          -127.84156,51.50218,0
          -127.87597,51.58951,0
          -127.90671,51.66725,0
          -127.90999,51.67453,0
          -127.91068,51.6768,0
          -127.91515,51.6914,0
          -127.91749,51.70216,0
          -127.92123,51.72003,0
          -127.92732,51.75023,0
          -127.92978,51.7659,0
          -127.93433,51.79494,0
          -127.93055,51.83995,0
          -127.91294,51.85122,0
          -127.91061,51.85271,0
          -127.90642,51.85436,0
          -127.90185,51.8553,0
          -127.87826,51.86019,0
          -127.87414,51.86118,0
          -127.8684,51.86095,0
          -127.87604,51.86408,0
          -127.87728,51.86616,0
          -127.87899,51.87016,0
          -127.88032,51.87298,0
          -127.88273,51.87509,0
          -127.88909,51.87803,0
          -127.89652,51.88261,0
          -127.89864,51.88686,0
          -127.90023,51.897,0
          -127.89472,51.902,0
          -127.89121,51.90518,0
          -127.84428,51.9306,0
          -127.81485,51.9422,0
          -127.77826,51.95265,0
          -127.77657,51.95314,0
          -127.75439,51.95951,0
          -127.73159,51.96147,0
          -127.70719,51.95722,0
          -127.69659,51.95984,0
          -127.69022,51.96311,0
          -127.67965,51.99534,0
          -127.65384,52.0738,0
          -127.64829,52.08305,0
          -127.62383,52.12381,0
          -127.61359,52.13006,0
          -127.58814,52.13592,0
          -127.57223,52.14179,0
          -127.5603,52.14789,0
          -127.55314,52.15155,0
          -127.47995,52.19646,0
          -127.45266,52.20866,0
          -127.44071,52.21399,0
          -127.41419,52.22244,0
          -127.32235,52.24604,0
          -127.32018,52.24683,0
          -127.29434,52.25621,0
          -127.236,52.29062,0
          -127.20983,52.30563,0
          -127.18615,52.3192,0
          -127.17421,52.32112,0
          -127.12423,52.32259,0
          -127.07199,52.32167,0
          -127.05247,52.32132,0
          -127.00563,52.31516,0
          -126.98903,52.31661,0
          -126.97895,52.31987,0
          -126.95039,52.34605,0
          -126.94677,52.34852,0
          -126.94246,52.35039,0
          -126.93418,52.35271,0
          -126.87581,52.3657,0
          -126.85797,52.36967,0
          -126.84025,52.37319,0
          -126.81835,52.37569,0
          -126.80828,52.37722,0
          -126.80312,52.37768,0
          -126.79761,52.37797,0
          -126.79661,52.37786,0
          -126.79592,52.37769,0
          -126.79565,52.37757,0
          -126.79535,52.37733,0
          -126.79521,52.3771,0
          -126.79514,52.37689,0
          -126.79507,52.37591,0
          -126.79564,52.37482,0
        </coordinates>
      </LineString>
    </Placemark>
    <Placemark>
      <name>Bear Cove Ferry Terminal, Ferry Ramp, Port Hardy, BC</name>
      <styleUrl>#icon-1899-DB4436-nodesc</styleUrl>
      <Point>
        <coordinates>
          -127.4560698,50.7254954,0
        </coordinates>
      </Point>
    </Placemark>
    <Placemark>
      <name>100 BC-20, Bella Coola, BC V0T 1C0, Canada</name>
      <styleUrl>#icon-1899-DB4436-nodesc</styleUrl>
      <Point>
        <coordinates>
          -126.7956358,52.3748239,0
        </coordinates>
      </Point>
    </Placemark>
  </Document>
</kml>
