<?xml version="1.0" encoding="UTF-8"?>
<svg width="12px" height="7px" viewBox="0 0 12 7" version="1.1" xmlns="http://www.w3.org/2000/svg" xmlns:xlink="http://www.w3.org/1999/xlink">
    <!-- Generator: sketchtool 51 (57462) - http://www.bohemiancoding.com/sketch -->
    <title>2272A074-AB9F-4260-94FE-3FED070B9F1E-3464-00001070D758D3AC</title>
    <desc>Created with sketchtool.</desc>
    <defs></defs>
    <g id="Component-Library" stroke="none" stroke-width="1" fill="none" fill-rule="evenodd">
        <g id="UI-Components" transform="translate(-824.000000, -6347.000000)" fill="#0079A5" fill-rule="nonzero">
            <g id="Components" transform="translate(92.000000, 3576.000000)">
                <g id="Bookings" transform="translate(16.000000, 2218.000000)">
                    <g id="Dropdown-3" transform="translate(435.000000, 394.000000)">
                        <g id="Dropdown-3-UnSelected" transform="translate(0.000000, 140.000000)">
                            <g id="Icon-/-Arrow-Down" transform="translate(281.000000, 16.000000)">
                                <path d="M5.98025059,6.67193358 L10.3183665,3 L11.6105012,4.52656084 L5.98140834,9.2912226 L5.98025059,9.2898548 L5.97909283,9.2912226 L0.349999994,4.52656084 L1.64213467,3 L5.98025059,6.67193358 Z" id="-Arrow-Down"></path>
                            </g>
                        </g>
                    </g>
                </g>
            </g>
        </g>
    </g>
</svg>