<?xml version="1.0" encoding="UTF-8"?>
<svg width="50px" height="47px" viewBox="0 0 50 47" version="1.1" xmlns="http://www.w3.org/2000/svg" xmlns:xlink="http://www.w3.org/1999/xlink">
    <!-- Generator: sketchtool 51.1 (57501) - http://www.bohemiancoding.com/sketch -->
    <title>1DEFCF4D-6952-455D-98AC-030707B0238D</title>
    <desc>Created with sketchtool.</desc>
    <defs></defs>
    <g id="Component-Library" stroke="none" stroke-width="1" fill="none" fill-rule="evenodd">
        <g id="UI-Components" transform="translate(-190.000000, -365.000000)" fill="#FFFFFF">
            <g id="Symboles" transform="translate(71.000000, 267.000000)">
                <g id="White" transform="translate(24.000000, 0.000000)">
                    <g id="Icon-/-Edit" transform="translate(95.000000, 98.000000)">
                        <g id="Icon---Edit">
                            <path d="M47.9775281,47 L22.0224719,47 C20.9047191,47 20,46.248 20,45.3214286 C20,44.3948571 20.9047191,43.6428571 22.0224719,43.6428571 L47.9775281,43.6428571 C49.0939326,43.6428571 50,44.3948571 50,45.3214286 C50,46.248 49.0939326,47 47.9775281,47 M5.06081864,36.280184 L4.2563404,42.6924698 L10.6474,41.8103004 L42.0944678,10.2283686 C42.494732,9.83761785 42.7080306,9.34222539 42.7159306,8.8110693 C42.7238305,8.28123779 42.5263318,7.77922243 42.1603008,7.39774375 L39.3795183,4.60155795 C38.9911041,4.19756142 38.4986739,3.98297966 37.9706939,3.97370761 C37.4506139,3.99490087 36.9437004,4.16444695 36.5645028,4.53400443 L5.06081864,36.280184 Z M1.97457149,47 C1.45844142,47 0.958111247,46.7960149 0.586813595,46.4264574 C0.149683025,45.9919956 -0.0609823097,45.377391 0.0153838741,44.7654356 L1.22670955,35.1079317 C1.28069254,34.6721453 1.47950795,34.2654996 1.78892266,33.9542236 L33.7047209,1.79345094 C33.7126208,1.78550347 33.8087369,1.68616006 33.8179535,1.67821259 C34.9555463,0.570864733 36.5223697,-0.0318186102 38.0338935,0.00129585924 C39.6165168,0.026462856 41.0951242,0.67153272 42.1958505,1.8146442 L44.8857835,4.51943407 C44.8963168,4.5300307 44.9937495,4.63069868 45.0042828,4.63997073 C46.0984259,5.77645932 46.6909221,7.28250539 46.6659056,8.87597366 C46.6395724,10.4667928 46.0009931,11.9529702 44.8634003,13.060318 L12.9686686,45.0952557 C12.6645206,45.4012334 12.2682064,45.5985957 11.8416091,45.6582017 L2.24316979,46.9827805 C2.15363702,46.9933771 2.06410425,47 1.97457149,47 Z M33.2519919,12.8390277 C32.1546417,11.7338945 31.331629,10.9050446 30.7829539,10.3524781 L33.620715,7.51099524 C34.1675801,8.06173904 34.9878778,8.88785473 36.0816082,9.98934232 C36.8616862,10.776296 36.8616862,12.052074 36.0816082,12.8390277 C35.6909024,13.2325045 35.1788512,13.4285714 34.6668,13.4285714 C34.1547488,13.4285714 33.6426976,13.2325045 33.2519919,12.8390277 Z" id="Edit-pencil"></path>
                        </g>
                    </g>
                </g>
            </g>
        </g>
    </g>
</svg>