<?xml version="1.0" encoding="UTF-8"?>
<svg width="16px" height="37px" viewBox="0 0 16 37" version="1.1" xmlns="http://www.w3.org/2000/svg" xmlns:xlink="http://www.w3.org/1999/xlink">
    <!-- Generator: sketchtool 51.2 (57519) - http://www.bohemiancoding.com/sketch -->
    <title>14C3859F-36FA-4A9B-B32E-823CB2648D9E</title>
    <desc>Created with sketchtool.</desc>
    <defs></defs>
    <g id="Desktop" stroke="none" stroke-width="1" fill="none" fill-rule="evenodd">
        <g id="Payment-&amp;-Review" transform="translate(-593.000000, -1346.000000)" fill="#003366">
            <g id="Expanded-Dropdown" transform="translate(153.000000, 1292.000000)">
                <g id="Depart-/-Return" transform="translate(265.000000, 30.000000)">
                    <g id="Icon-/-Depart-Return-/-navy" transform="translate(164.000000, 24.000000)">
                        <g id="Chevron" transform="translate(9.961538, 0.000000)">
                            <g id="Directional-Arrows" transform="translate(0.000000, 10.710526)">
                                <g id="Chevrons-Left" opacity="0.5" transform="translate(8.191648, 12.890732) scale(-1, 1) translate(-8.191648, -12.890732) translate(0.889016, 9.482838)">
                                    <g id="Group-3">
                                        <rect id="Rectangle-1-Copy" x="2.70938215" y="2.70938215" width="1" height="1"></rect>
                                        <rect id="Rectangle-1-Copy" x="2.03203661" y="2.03203661" width="1" height="1"></rect>
                                        <rect id="Rectangle-1-Copy" x="1.35469108" y="1.35469108" width="1" height="1"></rect>
                                        <rect id="Rectangle-1-Copy" x="0.677345538" y="0.677345538" width="1" height="1"></rect>
                                        <rect id="Rectangle-1-Copy" x="0" y="0" width="1" height="1"></rect>
                                        <rect id="Rectangle-1-Copy" x="2.03203661" y="3.38672769" width="1" height="1"></rect>
                                        <rect id="Rectangle-1-Copy" x="1.35469108" y="4.06407323" width="1" height="1"></rect>
                                        <rect id="Rectangle-1-Copy" x="0.677345538" y="4.74141876" width="1" height="1"></rect>
                                        <rect id="Rectangle-1-Copy" x="0" y="5.4187643" width="1" height="1"></rect>
                                    </g>
                                    <g id="Group-3" transform="translate(3.386728, 0.000000)">
                                        <rect id="Rectangle-1-Copy" x="2.70938215" y="2.70938215" width="1" height="1"></rect>
                                        <rect id="Rectangle-1-Copy" x="2.03203661" y="2.03203661" width="1" height="1"></rect>
                                        <rect id="Rectangle-1-Copy" x="1.35469108" y="1.35469108" width="1" height="1"></rect>
                                        <rect id="Rectangle-1-Copy" x="0.677345538" y="0.677345538" width="1" height="1"></rect>
                                        <rect id="Rectangle-1-Copy" x="0" y="0" width="1" height="1"></rect>
                                        <rect id="Rectangle-1-Copy" x="2.03203661" y="3.38672769" width="1" height="1"></rect>
                                        <rect id="Rectangle-1-Copy" x="1.35469108" y="4.06407323" width="1" height="1"></rect>
                                        <rect id="Rectangle-1-Copy" x="0.677345538" y="4.74141876" width="1" height="1"></rect>
                                        <rect id="Rectangle-1-Copy" x="0" y="5.4187643" width="1" height="1"></rect>
                                    </g>
                                    <g id="Group-3" transform="translate(10.160183, 0.000000)">
                                        <rect id="Rectangle-1-Copy" x="2.70938215" y="2.70938215" width="1" height="1"></rect>
                                        <rect id="Rectangle-1-Copy" x="2.03203661" y="2.03203661" width="1" height="1"></rect>
                                        <rect id="Rectangle-1-Copy" x="1.35469108" y="1.35469108" width="1" height="1"></rect>
                                        <rect id="Rectangle-1-Copy" x="0.677345538" y="0.677345538" width="1" height="1"></rect>
                                        <rect id="Rectangle-1-Copy" x="0" y="0" width="1" height="1"></rect>
                                        <rect id="Rectangle-1-Copy" x="2.03203661" y="3.38672769" width="1" height="1"></rect>
                                        <rect id="Rectangle-1-Copy" x="1.35469108" y="4.06407323" width="1" height="1"></rect>
                                        <rect id="Rectangle-1-Copy" x="0.677345538" y="4.74141876" width="1" height="1"></rect>
                                        <rect id="Rectangle-1-Copy" x="0" y="5.4187643" width="1" height="1"></rect>
                                    </g>
                                    <g id="Group-3" transform="translate(6.773455, 0.000000)">
                                        <rect id="Rectangle-1-Copy" x="2.70938215" y="2.70938215" width="1" height="1"></rect>
                                        <rect id="Rectangle-1-Copy" x="2.03203661" y="2.03203661" width="1" height="1"></rect>
                                        <rect id="Rectangle-1-Copy" x="1.35469108" y="1.35469108" width="1" height="1"></rect>
                                        <rect id="Rectangle-1-Copy" x="0.677345538" y="0.677345538" width="1" height="1"></rect>
                                        <rect id="Rectangle-1-Copy" x="0" y="0" width="1" height="1"></rect>
                                        <rect id="Rectangle-1-Copy" x="2.03203661" y="3.38672769" width="1" height="1"></rect>
                                        <rect id="Rectangle-1-Copy" x="1.35469108" y="4.06407323" width="1" height="1"></rect>
                                        <rect id="Rectangle-1-Copy" x="0.677345538" y="4.74141876" width="1" height="1"></rect>
                                        <rect id="Rectangle-1-Copy" x="0" y="5.4187643" width="1" height="1"></rect>
                                    </g>
                                </g>
                                <g id="Chevrons-Right" transform="translate(1.947368, 0.000000)">
                                    <g id="Group-3" transform="translate(0.677346, 0.000000)">
                                        <rect id="Rectangle-1-Copy" x="2.70938215" y="2.70938215" width="1" height="1"></rect>
                                        <rect id="Rectangle-1-Copy" x="2.03203661" y="2.03203661" width="1" height="1"></rect>
                                        <rect id="Rectangle-1-Copy" x="1.35469108" y="1.35469108" width="1" height="1"></rect>
                                        <rect id="Rectangle-1-Copy" x="0.677345538" y="0.677345538" width="1" height="1"></rect>
                                        <rect id="Rectangle-1-Copy" x="0" y="0" width="1" height="1"></rect>
                                        <rect id="Rectangle-1-Copy" x="2.03203661" y="3.38672769" width="1" height="1"></rect>
                                        <rect id="Rectangle-1-Copy" x="1.35469108" y="4.06407323" width="1" height="1"></rect>
                                        <rect id="Rectangle-1-Copy" x="0.677345538" y="4.74141876" width="1" height="1"></rect>
                                        <rect id="Rectangle-1-Copy" x="0" y="5.4187643" width="1" height="1"></rect>
                                    </g>
                                    <g id="Group-3" transform="translate(4.064073, 0.000000)">
                                        <rect id="Rectangle-1-Copy" x="2.70938215" y="2.70938215" width="1" height="1"></rect>
                                        <rect id="Rectangle-1-Copy" x="2.03203661" y="2.03203661" width="1" height="1"></rect>
                                        <rect id="Rectangle-1-Copy" x="1.35469108" y="1.35469108" width="1" height="1"></rect>
                                        <rect id="Rectangle-1-Copy" x="0.677345538" y="0.677345538" width="1" height="1"></rect>
                                        <rect id="Rectangle-1-Copy" x="0" y="0" width="1" height="1"></rect>
                                        <rect id="Rectangle-1-Copy" x="2.03203661" y="3.38672769" width="1" height="1"></rect>
                                        <rect id="Rectangle-1-Copy" x="1.35469108" y="4.06407323" width="1" height="1"></rect>
                                        <rect id="Rectangle-1-Copy" x="0.677345538" y="4.74141876" width="1" height="1"></rect>
                                        <rect id="Rectangle-1-Copy" x="0" y="5.4187643" width="1" height="1"></rect>
                                    </g>
                                    <g id="Group-3" transform="translate(10.837529, 0.000000)">
                                        <rect id="Rectangle-1-Copy" x="2.70938215" y="2.70938215" width="1" height="1"></rect>
                                        <rect id="Rectangle-1-Copy" x="2.03203661" y="2.03203661" width="1" height="1"></rect>
                                        <rect id="Rectangle-1-Copy" x="1.35469108" y="1.35469108" width="1" height="1"></rect>
                                        <rect id="Rectangle-1-Copy" x="0.677345538" y="0.677345538" width="1" height="1"></rect>
                                        <rect id="Rectangle-1-Copy" x="0" y="0" width="1" height="1"></rect>
                                        <rect id="Rectangle-1-Copy" x="2.03203661" y="3.38672769" width="1" height="1"></rect>
                                        <rect id="Rectangle-1-Copy" x="1.35469108" y="4.06407323" width="1" height="1"></rect>
                                        <rect id="Rectangle-1-Copy" x="0.677345538" y="4.74141876" width="1" height="1"></rect>
                                        <rect id="Rectangle-1-Copy" x="0" y="5.4187643" width="1" height="1"></rect>
                                    </g>
                                    <g id="Group-3" transform="translate(7.450801, 0.000000)">
                                        <rect id="Rectangle-1-Copy" x="2.70938215" y="2.70938215" width="1" height="1"></rect>
                                        <rect id="Rectangle-1-Copy" x="2.03203661" y="2.03203661" width="1" height="1"></rect>
                                        <rect id="Rectangle-1-Copy" x="1.35469108" y="1.35469108" width="1" height="1"></rect>
                                        <rect id="Rectangle-1-Copy" x="0.677345538" y="0.677345538" width="1" height="1"></rect>
                                        <rect id="Rectangle-1-Copy" x="0" y="0" width="1" height="1"></rect>
                                        <rect id="Rectangle-1-Copy" x="2.03203661" y="3.38672769" width="1" height="1"></rect>
                                        <rect id="Rectangle-1-Copy" x="1.35469108" y="4.06407323" width="1" height="1"></rect>
                                        <rect id="Rectangle-1-Copy" x="0.677345538" y="4.74141876" width="1" height="1"></rect>
                                        <rect id="Rectangle-1-Copy" x="0" y="5.4187643" width="1" height="1"></rect>
                                    </g>
                                    <g id="Group-3">
                                        <rect id="Rectangle-1-Copy" x="2.70938215" y="2.70938215" width="1" height="1"></rect>
                                        <rect id="Rectangle-1-Copy" x="2.03203661" y="2.03203661" width="1" height="1"></rect>
                                        <rect id="Rectangle-1-Copy" x="1.35469108" y="1.35469108" width="1" height="1"></rect>
                                        <rect id="Rectangle-1-Copy" x="0.677345538" y="0.677345538" width="1" height="1"></rect>
                                        <rect id="Rectangle-1-Copy" x="0" y="0" width="1" height="1"></rect>
                                        <rect id="Rectangle-1-Copy" x="2.03203661" y="3.38672769" width="1" height="1"></rect>
                                        <rect id="Rectangle-1-Copy" x="1.35469108" y="4.06407323" width="1" height="1"></rect>
                                        <rect id="Rectangle-1-Copy" x="0.677345538" y="4.74141876" width="1" height="1"></rect>
                                        <rect id="Rectangle-1-Copy" x="0" y="5.4187643" width="1" height="1"></rect>
                                    </g>
                                    <g id="Group-3" transform="translate(3.386728, 0.000000)">
                                        <rect id="Rectangle-1-Copy" x="2.70938215" y="2.70938215" width="1" height="1"></rect>
                                        <rect id="Rectangle-1-Copy" x="2.03203661" y="2.03203661" width="1" height="1"></rect>
                                        <rect id="Rectangle-1-Copy" x="1.35469108" y="1.35469108" width="1" height="1"></rect>
                                        <rect id="Rectangle-1-Copy" x="0.677345538" y="0.677345538" width="1" height="1"></rect>
                                        <rect id="Rectangle-1-Copy" x="0" y="0" width="1" height="1"></rect>
                                        <rect id="Rectangle-1-Copy" x="2.03203661" y="3.38672769" width="1" height="1"></rect>
                                        <rect id="Rectangle-1-Copy" x="1.35469108" y="4.06407323" width="1" height="1"></rect>
                                        <rect id="Rectangle-1-Copy" x="0.677345538" y="4.74141876" width="1" height="1"></rect>
                                        <rect id="Rectangle-1-Copy" x="0" y="5.4187643" width="1" height="1"></rect>
                                    </g>
                                    <g id="Group-3" transform="translate(10.160183, 0.000000)">
                                        <rect id="Rectangle-1-Copy" x="2.70938215" y="2.70938215" width="1" height="1"></rect>
                                        <rect id="Rectangle-1-Copy" x="2.03203661" y="2.03203661" width="1" height="1"></rect>
                                        <rect id="Rectangle-1-Copy" x="1.35469108" y="1.35469108" width="1" height="1"></rect>
                                        <rect id="Rectangle-1-Copy" x="0.677345538" y="0.677345538" width="1" height="1"></rect>
                                        <rect id="Rectangle-1-Copy" x="0" y="0" width="1" height="1"></rect>
                                        <rect id="Rectangle-1-Copy" x="2.03203661" y="3.38672769" width="1" height="1"></rect>
                                        <rect id="Rectangle-1-Copy" x="1.35469108" y="4.06407323" width="1" height="1"></rect>
                                        <rect id="Rectangle-1-Copy" x="0.677345538" y="4.74141876" width="1" height="1"></rect>
                                        <rect id="Rectangle-1-Copy" x="0" y="5.4187643" width="1" height="1"></rect>
                                    </g>
                                    <g id="Group-3" transform="translate(6.773455, 0.000000)">
                                        <rect id="Rectangle-1-Copy" x="2.70938215" y="2.70938215" width="1" height="1"></rect>
                                        <rect id="Rectangle-1-Copy" x="2.03203661" y="2.03203661" width="1" height="1"></rect>
                                        <rect id="Rectangle-1-Copy" x="1.35469108" y="1.35469108" width="1" height="1"></rect>
                                        <rect id="Rectangle-1-Copy" x="0.677345538" y="0.677345538" width="1" height="1"></rect>
                                        <rect id="Rectangle-1-Copy" x="0" y="0" width="1" height="1"></rect>
                                        <rect id="Rectangle-1-Copy" x="2.03203661" y="3.38672769" width="1" height="1"></rect>
                                        <rect id="Rectangle-1-Copy" x="1.35469108" y="4.06407323" width="1" height="1"></rect>
                                        <rect id="Rectangle-1-Copy" x="0.677345538" y="4.74141876" width="1" height="1"></rect>
                                        <rect id="Rectangle-1-Copy" x="0" y="5.4187643" width="1" height="1"></rect>
                                    </g>
                                </g>
                            </g>
                            <g id="Dashed-Line" opacity="0.5" transform="translate(9.025304, 18.500000) rotate(90.000000) translate(-9.025304, -18.500000) translate(-9.474696, 17.788462)">
                                <rect id="Rectangle-2" x="0" y="0" width="1.25423729" height="1"></rect>
                                <rect id="Rectangle-2" x="3.76271186" y="0" width="1.25423729" height="1"></rect>
                                <rect id="Rectangle-2" x="7.52542373" y="0" width="1.25423729" height="1"></rect>
                                <rect id="Rectangle-2" x="28.220339" y="0" width="1.25423729" height="1"></rect>
                                <rect id="Rectangle-2" x="31.9830508" y="0" width="1.25423729" height="1"></rect>
                                <rect id="Rectangle-2" x="35.7457627" y="0" width="1.25423729" height="1"></rect>
                            </g>
                        </g>
                    </g>
                </g>
            </g>
        </g>
    </g>
</svg>