﻿RATEPLAN531,Season 1,PrestigeHudsonBayLodge,SQRPHBL,1, 2018-09-01, 2019-03-31,"MONDAY,TUESDAY,WEDNESDAY,THURSDAY,FRIDAY,SATURDAY,SUNDAY",1,120,0,PERCENT,25.7185,
RATEPLAN532,Season 2,PrestigeHudsonBayLodge,SQRPHBL,1, 2019-04-01,2019-06-18,"MONDAY,TUESDAY,WEDNESDAY,THURSDAY,FRIDAY,SATURDAY,SUNDAY",1,130,0,PERCENT,22.6774,
RATEPLAN533,Season 3,PrestigeHudsonBayLodge,SQRPHBL,1,2019-06-19,2019-07-30,"MONDAY,TUESDAY,WEDNESDAY,THURSDAY,FRIDAY,SATURDAY,SUNDAY",1,130,0,PERCENT,25.3311,
RATEPLAN534,Season 4,PrestigeHudsonBayLodge,SQRPHBL,1,2019-07-31,2019-09-30,"MONDAY,TUESDAY,WEDNESDAY,THURSDAY,FRIDAY,SATURDAY,SUNDAY",1,130,0,PERCENT,25.3311,
RATEPLAN535,Season 5,PrestigeHudsonBayLodge,SQRPHBL,1,2019-10-01,2020-03-31,"MONDAY,TUESDAY,WEDNESDAY,THURSDAY,FRIDAY,SATURDAY,SUNDAY",1,130,0,PERCENT,22.6774,
RATEPLAN536,Season 1,PrestigeHudsonBayLodge,SKRPHBL,1, 2018-09-01, 2019-03-31,"MONDAY,TUESDAY,WEDNESDAY,THURSDAY,FRIDAY,SATURDAY,SUNDAY",1,141,0,PERCENT,25.3353,
RATEPLAN537,Season 2,PrestigeHudsonBayLodge,SKRPHBL,1, 2019-04-01,2019-06-18,"MONDAY,TUESDAY,WEDNESDAY,THURSDAY,FRIDAY,SATURDAY,SUNDAY",1,150,0,PERCENT,22.9901,
RATEPLAN538,Season 3,PrestigeHudsonBayLodge,SKRPHBL,1,2019-06-19,2019-07-30,"MONDAY,TUESDAY,WEDNESDAY,THURSDAY,FRIDAY,SATURDAY,SUNDAY",1,150,0,PERCENT,25.8639,
RATEPLAN539,Season 4,PrestigeHudsonBayLodge,SKRPHBL,1,2019-07-31,2019-09-30,"MONDAY,TUESDAY,WEDNESDAY,THURSDAY,FRIDAY,SATURDAY,SUNDAY",1,150,0,PERCENT,25.8639,
RATEPLAN540,Season 5,PrestigeHudsonBayLodge,SKRPHBL,1,2019-10-01,2020-03-31,"MONDAY,TUESDAY,WEDNESDAY,THURSDAY,FRIDAY,SATURDAY,SUNDAY",1,150,0,PERCENT,22.9901,
RATEPLAN541,Season 1,PrestigeHotelPrinceRupert,DQRPHPR,1, 2018-10-01, 2019-03-31,"MONDAY,TUESDAY,WEDNESDAY,THURSDAY,FRIDAY,SATURDAY,SUNDAY",1,89.95,0,PERCENT,34.3769,
RATEPLAN542,Season 2,PrestigeHotelPrinceRupert,DQRPHPR,1, 2019-04-01, 2019-04-30,"MONDAY,TUESDAY,WEDNESDAY,THURSDAY,FRIDAY,SATURDAY,SUNDAY",1,104.95,0,PERCENT,24.2833,
RATEPLAN543,Season 3,PrestigeHotelPrinceRupert,DQRPHPR,1, 2019-05-01,2019-07-29,"MONDAY,TUESDAY,WEDNESDAY,THURSDAY,FRIDAY,SATURDAY,SUNDAY",1,129.95,0,PERCENT,27.1437,
RATEPLAN544,Season 4,PrestigeHotelPrinceRupert,DQRPHPR,1,2019-07-30,2019-09-30,"MONDAY,TUESDAY,WEDNESDAY,THURSDAY,FRIDAY,SATURDAY,SUNDAY",1,130,0,PERCENT,25.1347,
RATEPLAN545,Season 5,PrestigeHotelPrinceRupert,DQRPHPR,1,2019-10-01,2020-03-31,"MONDAY,TUESDAY,WEDNESDAY,THURSDAY,FRIDAY,SATURDAY,SUNDAY",1,105,0,PERCENT,24.2833,
RATEPLAN546,Season 1,PrestigeHotelPrinceRupert,DDRPHPR,1, 2018-10-01, 2019-03-31,"MONDAY,TUESDAY,WEDNESDAY,THURSDAY,FRIDAY,SATURDAY,SUNDAY",1,89.95,0,PERCENT,34.3769,
RATEPLAN547,Season 2,PrestigeHotelPrinceRupert,DDRPHPR,1, 2019-04-01, 2019-04-30,"MONDAY,TUESDAY,WEDNESDAY,THURSDAY,FRIDAY,SATURDAY,SUNDAY",1,104.95,0,PERCENT,24.2833,
RATEPLAN548,Season 3,PrestigeHotelPrinceRupert,DDRPHPR,1, 2019-05-01,2019-07-29,"MONDAY,TUESDAY,WEDNESDAY,THURSDAY,FRIDAY,SATURDAY,SUNDAY",1,129.95,0,PERCENT,27.1437,
RATEPLAN549,Season 4,PrestigeHotelPrinceRupert,DDRPHPR,1,2019-07-30,2019-09-30,"MONDAY,TUESDAY,WEDNESDAY,THURSDAY,FRIDAY,SATURDAY,SUNDAY",1,130,0,PERCENT,25.1347,
RATEPLAN550,Season 5,PrestigeHotelPrinceRupert,DDRPHPR,1,2019-10-01,2020-03-31,"MONDAY,TUESDAY,WEDNESDAY,THURSDAY,FRIDAY,SATURDAY,SUNDAY",1,105,0,PERCENT,24.2833,
RATEPLAN551,Season 1,PrestigeHotelPrinceRupert,SKRPHPR,1, 2018-10-01, 2019-03-31,"MONDAY,TUESDAY,WEDNESDAY,THURSDAY,FRIDAY,SATURDAY,SUNDAY",1,109.95,0,PERCENT,30.4988,
RATEPLAN552,Season 2,PrestigeHotelPrinceRupert,SKRPHPR,1, 2019-04-01, 2019-04-30,"MONDAY,TUESDAY,WEDNESDAY,THURSDAY,FRIDAY,SATURDAY,SUNDAY",1,124.95,0,PERCENT,25.2708,
RATEPLAN553,Season 3,PrestigeHotelPrinceRupert,SKRPHPR,1, 2019-05-01,2019-09-30,"MONDAY,TUESDAY,WEDNESDAY,THURSDAY,FRIDAY,SATURDAY,SUNDAY",1,150,0,PERCENT,27.0018,
RATEPLAN554,Season 4,PrestigeHotelPrinceRupert,SKRPHPR,1,2019-10-01,2020-03-31,"MONDAY,TUESDAY,WEDNESDAY,THURSDAY,FRIDAY,SATURDAY,SUNDAY",1,125,0,PERCENT,25.2708,
RATEPLAN555,Season 1,PrestigeHotelPrinceRupert,SQRPHPR,1, 2018-10-01, 2019-03-31,"MONDAY,TUESDAY,WEDNESDAY,THURSDAY,FRIDAY,SATURDAY,SUNDAY",1,109.95,0,PERCENT,30.4988,
RATEPLAN556,Season 2,PrestigeHotelPrinceRupert,SQRPHPR,1, 2019-04-01, 2019-04-30,"MONDAY,TUESDAY,WEDNESDAY,THURSDAY,FRIDAY,SATURDAY,SUNDAY",1,124.95,0,PERCENT,25.2708,
RATEPLAN557,Season 3,PrestigeHotelPrinceRupert,SQRPHPR,1, 2019-05-01,2019-09-30,"MONDAY,TUESDAY,WEDNESDAY,THURSDAY,FRIDAY,SATURDAY,SUNDAY",1,150,0,PERCENT,27.0018,
RATEPLAN558,Season 4,PrestigeHotelPrinceRupert,SKRPHPR,1,2019-10-01,2020-03-31,"MONDAY,TUESDAY,WEDNESDAY,THURSDAY,FRIDAY,SATURDAY,SUNDAY",1,125,0,PERCENT,25.2708,
RATEPLAN559,Season 1,KingfisherOceansideResortandSpa,OCRKORS,1, 2019-04-01, 2019-04-30,"SUNDAY,MONDAY,TUESDAY,WEDNESDAY,THURSDAY, ",1,179,0,PERCENT,33.3889,
RATEPLAN560,Season 2,KingfisherOceansideResortandSpa,OCRKORS,1, 2019-04-01, 2019-04-30,"FRIDAY,SATURDAY",1,201,0,PERCENT,31.1191,
RATEPLAN561,Season 3,KingfisherOceansideResortandSpa,OCRKORS,1, 2019-05-01, 2019-09-30,"SUNDAY,MONDAY,TUESDAY,WEDNESDAY,THURSDAY, ",1,221,0,PERCENT,32.7785,
RATEPLAN562,Season 4,KingfisherOceansideResortandSpa,OCRKORS,1, 2019-05-01, 2019-09-30,"FRIDAY,SATURDAY",1,241,0,PERCENT,28.7369,
RATEPLAN563,Season 5,KingfisherOceansideResortandSpa,OCRKORS,1, 2019-10-01, 2020-03-31,"SUNDAY,MONDAY,TUESDAY,WEDNESDAY,THURSDAY, ",1,179,0,PERCENT,29.1763,
RATEPLAN564,Season 6,KingfisherOceansideResortandSpa,OCRKORS,1, 2019-10-01, 2020-03-31,"FRIDAY,SATURDAY",1,201,0,PERCENT,29.2614,
RATEPLAN565,Season 1,KingfisherOceansideResortandSpa,OBBSKORS,1, 2018-10-01, 2019-03-31,"SUNDAY,MONDAY,TUESDAY,WEDNESDAY,THURSDAY, ",1,189,0,PERCENT,31,
RATEPLAN566,Season 2,KingfisherOceansideResortandSpa,OBBSKORS,1, 2018-10-01, 2019-03-31,"FRIDAY,SATURDAY",1,209,0,PERCENT,30.7603,
RATEPLAN567,Season 3,KingfisherOceansideResortandSpa,OBBSKORS,1, 2019-04-01, 2019-04-30,"SUNDAY,MONDAY,TUESDAY,WEDNESDAY,THURSDAY, ",1,199,0,PERCENT,30.5559,
RATEPLAN568,Season 4,KingfisherOceansideResortandSpa,OBBSKORS,1, 2019-04-01, 2019-04-30,"FRIDAY,SATURDAY",1,221,0,PERCENT,32.7785,
RATEPLAN569,Season 5,KingfisherOceansideResortandSpa,OBBSKORS,1, 2019-05-01, 2019-09-30,"SUNDAY,MONDAY,TUESDAY,WEDNESDAY,THURSDAY, ",1,241,0,PERCENT,28.7364,
RATEPLAN570,Season 6,KingfisherOceansideResortandSpa,OBBSKORS,1, 2019-05-01, 2019-09-30,"FRIDAY,SATURDAY",1,261,0,PERCENT,28.5399,
RATEPLAN571,Season 7,KingfisherOceansideResortandSpa,OBBSKORS,1, 2019-10-01, 2020-03-31,"SUNDAY,MONDAY,TUESDAY,WEDNESDAY,THURSDAY, ",1,199,0,PERCENT,30.5541,
RATEPLAN572,Season 8,KingfisherOceansideResortandSpa,OBBSKORS,1, 2019-10-01, 2020-03-31,"FRIDAY,SATURDAY",1,221,0,PERCENT,32.7785,
RATEPLAN573,Season 1,KingfisherOceansideResortandSpa,TBBSKORS,1, 2018-10-01, 2019-03-31,"SUNDAY,MONDAY,TUESDAY,WEDNESDAY,THURSDAY, ",1,189,0,PERCENT,31,
RATEPLAN574,Season 2,KingfisherOceansideResortandSpa,TBBSKORS,1, 2018-10-01, 2019-03-31,"FRIDAY,SATURDAY",1,209,0,PERCENT,30.7603,
RATEPLAN575,Season 3,KingfisherOceansideResortandSpa,TBBSKORS,1, 2019-04-01, 2019-04-30,"SUNDAY,MONDAY,TUESDAY,WEDNESDAY,THURSDAY, ",1,199,0,PERCENT,30.5541,
RATEPLAN576,Season 4,KingfisherOceansideResortandSpa,TBBSKORS,1, 2019-04-01, 2019-04-30,"FRIDAY,SATURDAY",1,221,0,PERCENT,28.9754,
RATEPLAN577,Season 5,KingfisherOceansideResortandSpa,TBBSKORS,1, 2019-05-01, 2019-09-30,"SUNDAY,MONDAY,TUESDAY,WEDNESDAY,THURSDAY, ",1,241,0,PERCENT,28.7364,
RATEPLAN578,Season 6,KingfisherOceansideResortandSpa,TBBSKORS,1, 2019-05-01, 2019-09-30,"FRIDAY,SATURDAY",1,261,0,PERCENT,28.5399,
RATEPLAN579,Season 7,KingfisherOceansideResortandSpa,TBBSKORS,1, 2019-10-01, 2020-03-31,"SUNDAY,MONDAY,TUESDAY,WEDNESDAY,THURSDAY, ",1,199,0,PERCENT,30.5541,
RATEPLAN580,Season 8,KingfisherOceansideResortandSpa,TBBSKORS,1, 2019-10-01, 2020-03-31,"FRIDAY,SATURDAY",1,221,0,PERCENT,32.7785,
RATEPLAN581,Season 1,CoastFraserInn,CRCFI,1, 2018-10-01,2019-06-26,"MONDAY,TUESDAY,WEDNESDAY,THURSDAY,FRIDAY,SATURDAY,SUNDAY",1,90,0,PERCENT,25.8629,
RATEPLAN582,Season 3,CoastFraserInn,CRCFI,1,2019-06-27,2019-07-01,"MONDAY,TUESDAY,WEDNESDAY,THURSDAY,FRIDAY,SATURDAY,SUNDAY",1,139,0,PERCENT,26.6958,
RATEPLAN583,Season 5,CoastFraserInn,CRCFI,1,2019-07-02,2020-03-30,"MONDAY,TUESDAY,WEDNESDAY,THURSDAY,FRIDAY,SATURDAY,SUNDAY",1,90,0,PERCENT,25.8629,
RATEPLAN584,Season 1,BeachGardensResortandMarina,DORBGRM,1,2019-01-01, 2020-04-30,"MONDAY,TUESDAY,WEDNESDAY,THURSDAY,FRIDAY,SATURDAY,SUNDAY",1,109,0,PERCENT,22.8559,
RATEPLAN585,Season 1,BeachGardensResortandMarina,DORFMBGRM,1,2019-01-01, 2020-04-30,"MONDAY,TUESDAY,WEDNESDAY,THURSDAY,FRIDAY,SATURDAY,SUNDAY",1,124,0,PERCENT,22.7202,
RATEPLAN586,Season 1,BeachGardensResortandMarina,DSBGRM,1,2019-01-01, 2020-04-30,"MONDAY,TUESDAY,WEDNESDAY,THURSDAY,FRIDAY,SATURDAY,SUNDAY",1,169,0,PERCENT,20.3999,
RATEPLAN587,Season 1,BeachGardensResortandMarina,DSFMBGRM,1,2019-01-01, 2020-04-30,"MONDAY,TUESDAY,WEDNESDAY,THURSDAY,FRIDAY,SATURDAY,SUNDAY",1,184,0,PERCENT,20.0381,
RATEPLAN588,Season 1,ParksideHotelandSpa,DOBSPRS,1,2019-03-01,2019-03-31,"MONDAY,TUESDAY,WEDNESDAY,THURSDAY,FRIDAY,SATURDAY,SUNDAY",1,120,0,PERCENT,24.4784,
RATEPLAN589,Season 2,ParksideHotelandSpa,DOBSPRS,1,2019-04-01,2019-04-30,"MONDAY,TUESDAY,WEDNESDAY,THURSDAY,FRIDAY,SATURDAY,SUNDAY",1,139,0,PERCENT,28.3363,
RATEPLAN590,Season 3,ParksideHotelandSpa,DOBSPRS,1,2019-05-01,2019-05-16,"MONDAY,TUESDAY,WEDNESDAY,THURSDAY,FRIDAY,SATURDAY,SUNDAY",1,165,0,PERCENT,26.7409,
RATEPLAN591,Season 4,ParksideHotelandSpa,DOBSPRS,1,2019-05-17,2019-06-27,"MONDAY,TUESDAY,WEDNESDAY,THURSDAY,FRIDAY,SATURDAY,SUNDAY",1,180,0,PERCENT,25.6556,
RATEPLAN592,Season 5,ParksideHotelandSpa,DOBSPRS,1,2019-06-28,2019-10-13,"MONDAY,TUESDAY,WEDNESDAY,THURSDAY,FRIDAY,SATURDAY,SUNDAY",1,199,0,PERCENT,26.5286,
RATEPLAN593,Season 6,ParksideHotelandSpa,DOBSPRS,1,2019-10-14,2019-12-19,"MONDAY,TUESDAY,WEDNESDAY,THURSDAY,FRIDAY,SATURDAY,SUNDAY",1,114,0,PERCENT,26.5333,
RATEPLAN594,Season 7,ParksideHotelandSpa,DOBSPRS,1,2019-12-20,2020-02-29,"MONDAY,TUESDAY,WEDNESDAY,THURSDAY,FRIDAY,SATURDAY,SUNDAY",1,120,0,PERCENT,27.3209,
RATEPLAN595,Season 8,ParksideHotelandSpa,DOBSPRS,1,2020-03-01,2020-03-31,"MONDAY,TUESDAY,WEDNESDAY,THURSDAY,FRIDAY,SATURDAY,SUNDAY",1,125,0,PERCENT,27.005,
RATEPLAN596,Season 1,ParksideHotelandSpa,LOBSPRS,1,2019-03-01,2019-03-31,"MONDAY,TUESDAY,WEDNESDAY,THURSDAY,FRIDAY,SATURDAY,SUNDAY",1,135,0,PERCENT,23.288,
RATEPLAN597,Season 2,ParksideHotelandSpa,LOBSPRS,1,2019-04-01,2019-04-30,"MONDAY,TUESDAY,WEDNESDAY,THURSDAY,FRIDAY,SATURDAY,SUNDAY",1,169,0,PERCENT,26.2649,
RATEPLAN598,Season 3,ParksideHotelandSpa,LOBSPRS,1,2019-05-01,2019-05-16,"MONDAY,TUESDAY,WEDNESDAY,THURSDAY,FRIDAY,SATURDAY,SUNDAY",1,195,0,PERCENT,26.4994,
RATEPLAN599,Season 4,ParksideHotelandSpa,LOBSPRS,1,2019-05-17,2019-06-27,"MONDAY,TUESDAY,WEDNESDAY,THURSDAY,FRIDAY,SATURDAY,SUNDAY",1,210,0,PERCENT,25.5886,
RATEPLAN600,Season 5,ParksideHotelandSpa,LOBSPRS,1,2019-06-28,2019-10-13,"MONDAY,TUESDAY,WEDNESDAY,THURSDAY,FRIDAY,SATURDAY,SUNDAY",1,229,0,PERCENT,26.3512,
RATEPLAN601,Season 6,ParksideHotelandSpa,LOBSPRS,1,2019-10-14,2019-12-19,"MONDAY,TUESDAY,WEDNESDAY,THURSDAY,FRIDAY,SATURDAY,SUNDAY",1,144,0,PERCENT,26.8432,
RATEPLAN602,Season 7,ParksideHotelandSpa,LOBSPRS,1,2019-12-20,2020-02-29,"MONDAY,TUESDAY,WEDNESDAY,THURSDAY,FRIDAY,SATURDAY,SUNDAY",1,150,0,PERCENT,27.4627,
RATEPLAN603,Season 8,ParksideHotelandSpa,LOBSPRS,1,2020-03-01,2020-03-31,"MONDAY,TUESDAY,WEDNESDAY,THURSDAY,FRIDAY,SATURDAY,SUNDAY",1,155,0,PERCENT,26.1004,
RATEPLAN604,Season 1,ParksideHotelandSpa,OBCSPRS,1,2019-03-01,2019-03-31,"MONDAY,TUESDAY,WEDNESDAY,THURSDAY,FRIDAY,SATURDAY,SUNDAY",1,155,0,PERCENT,26.6502,
RATEPLAN605,Season 2,ParksideHotelandSpa,OBCSPRS,1,2019-04-01,2019-04-30,"MONDAY,TUESDAY,WEDNESDAY,THURSDAY,FRIDAY,SATURDAY,SUNDAY",1,169,0,PERCENT,26.2649,
RATEPLAN606,Season 3,ParksideHotelandSpa,OBCSPRS,1,2019-05-01,2019-05-16,"MONDAY,TUESDAY,WEDNESDAY,THURSDAY,FRIDAY,SATURDAY,SUNDAY",1,195,0,PERCENT,26.4994,
RATEPLAN607,Season 4,ParksideHotelandSpa,OBCSPRS,1,2019-05-17,2019-06-27,"MONDAY,TUESDAY,WEDNESDAY,THURSDAY,FRIDAY,SATURDAY,SUNDAY",1,210,0,PERCENT,25.5886,
RATEPLAN608,Season 5,ParksideHotelandSpa,OBCSPRS,1,2019-06-28,2019-10-13,"MONDAY,TUESDAY,WEDNESDAY,THURSDAY,FRIDAY,SATURDAY,SUNDAY",1,229,0,PERCENT,26.3512,
RATEPLAN609,Season 6,ParksideHotelandSpa,OBCSPRS,1,2019-10-14,2019-12-19,"MONDAY,TUESDAY,WEDNESDAY,THURSDAY,FRIDAY,SATURDAY,SUNDAY",1,144,0,PERCENT,26.8432,
RATEPLAN610,Season 7,ParksideHotelandSpa,OBCSPRS,1,2019-12-20,2020-02-29,"MONDAY,TUESDAY,WEDNESDAY,THURSDAY,FRIDAY,SATURDAY,SUNDAY",1,150,0,PERCENT,27.4627,
RATEPLAN611,Season 8,ParksideHotelandSpa,OBCSPRS,1,2020-03-01,2020-03-31,"MONDAY,TUESDAY,WEDNESDAY,THURSDAY,FRIDAY,SATURDAY,SUNDAY",1,155,0,PERCENT,26.1004,
RATEPLAN612,Season 1,ParksideHotelandSpa,OBPVSPRS,1,2019-03-01,2019-03-31,"MONDAY,TUESDAY,WEDNESDAY,THURSDAY,FRIDAY,SATURDAY,SUNDAY",1,155,0,PERCENT,23.8999,
RATEPLAN613,Season 2,ParksideHotelandSpa,OBPVSPRS,1,2019-04-01,2019-04-30,"MONDAY,TUESDAY,WEDNESDAY,THURSDAY,FRIDAY,SATURDAY,SUNDAY",1,189,0,PERCENT,25.9994,
RATEPLAN614,Season 3,ParksideHotelandSpa,OBPVSPRS,1,2019-05-01,2019-05-16,"MONDAY,TUESDAY,WEDNESDAY,THURSDAY,FRIDAY,SATURDAY,SUNDAY",1,225,0,PERCENT,26.7034,
RATEPLAN615,Season 4,ParksideHotelandSpa,OBPVSPRS,1,2019-05-17,2019-06-27,"MONDAY,TUESDAY,WEDNESDAY,THURSDAY,FRIDAY,SATURDAY,SUNDAY",1,250,0,PERCENT,25.982,
RATEPLAN616,Season 5,ParksideHotelandSpa,OBPVSPRS,1,2019-06-28,2019-10-13,"MONDAY,TUESDAY,WEDNESDAY,THURSDAY,FRIDAY,SATURDAY,SUNDAY",1,269,0,PERCENT,26.6032,
RATEPLAN617,Season 6,ParksideHotelandSpa,OBPVSPRS,1,2019-10-14,2019-12-19,"MONDAY,TUESDAY,WEDNESDAY,THURSDAY,FRIDAY,SATURDAY,SUNDAY",1,164,0,PERCENT,27.5126,
RATEPLAN618,Season 7,ParksideHotelandSpa,OBPVSPRS,1,2019-12-20,2020-02-29,"MONDAY,TUESDAY,WEDNESDAY,THURSDAY,FRIDAY,SATURDAY,SUNDAY",1,170,0,PERCENT,25.52,
RATEPLAN619,Season 8,ParksideHotelandSpa,OBPVSPRS,1,2020-03-01,2020-03-31,"MONDAY,TUESDAY,WEDNESDAY,THURSDAY,FRIDAY,SATURDAY,SUNDAY",1,185,0,PERCENT,26.8754,
RATEPLAN620,Season 1,ParksideHotelandSpa,TBDSPRS,1,2019-03-01,2019-03-31,"MONDAY,TUESDAY,WEDNESDAY,THURSDAY,FRIDAY,SATURDAY,SUNDAY",1,195,0,PERCENT,24.75,
RATEPLAN621,Season 2,ParksideHotelandSpa,TBDSPRS,1,2019-04-01,2019-04-30,"MONDAY,TUESDAY,WEDNESDAY,THURSDAY,FRIDAY,SATURDAY,SUNDAY",1,219,0,PERCENT,27.0546,
RATEPLAN622,Season 3,ParksideHotelandSpa,TBDSPRS,1,2019-05-01,2019-05-16,"MONDAY,TUESDAY,WEDNESDAY,THURSDAY,FRIDAY,SATURDAY,SUNDAY",1,245,0,PERCENT,27.16,
RATEPLAN623,Season 4,ParksideHotelandSpa,TBDSPRS,1,2019-05-17,2019-06-27,"MONDAY,TUESDAY,WEDNESDAY,THURSDAY,FRIDAY,SATURDAY,SUNDAY",1,300,0,PERCENT,26.6085,
RATEPLAN624,Season 5,ParksideHotelandSpa,TBDSPRS,1,2019-06-28,2019-09-01,"MONDAY,TUESDAY,WEDNESDAY,THURSDAY,FRIDAY,SATURDAY,SUNDAY",1,369,0,PERCENT,26.9888,
RATEPLAN625,Season 6,ParksideHotelandSpa,TBDSPRS,1,2019-09-02,2019-10-13,"MONDAY,TUESDAY,WEDNESDAY,THURSDAY,FRIDAY,SATURDAY,SUNDAY",1,319,0,PERCENT,26.8256,
RATEPLAN626,Season 7,ParksideHotelandSpa,TBDSPRS,1,2019-10-14,2019-12-19,"MONDAY,TUESDAY,WEDNESDAY,THURSDAY,FRIDAY,SATURDAY,SUNDAY",1,194,0,PERCENT,27.1512,
RATEPLAN627,Season 8,ParksideHotelandSpa,TBDSPRS,1,2019-12-20,2020-02-29,"MONDAY,TUESDAY,WEDNESDAY,THURSDAY,FRIDAY,SATURDAY,SUNDAY",1,220,0,PERCENT,26.0921,
RATEPLAN628,Season 10,ParksideHotelandSpa,TBDSPRS,1,2020-03-01,2020-03-31,"MONDAY,TUESDAY,WEDNESDAY,THURSDAY,FRIDAY,SATURDAY,SUNDAY",1,225,0,PERCENT,25.9442,
RATEPLAN629,Season 1,CoastTsawwassenInn,CRCTI,1,2018-10-01,2019-04-30,"MONDAY,TUESDAY,WEDNESDAY,THURSDAY,FRIDAY,SATURDAY,SUNDAY",1,104,0,PERCENT,26.7849,
RATEPLAN630,Season 2,CoastTsawwassenInn,CRCTI,1,2019-05-01,2019-09-30,"MONDAY,TUESDAY,WEDNESDAY,THURSDAY,FRIDAY,SATURDAY,SUNDAY",1,126,0,PERCENT,25.7215,
RATEPLAN631,Season 3,CoastTsawwassenInn,CRCTI,1,2019-10-01,2020-04-30,"MONDAY,TUESDAY,WEDNESDAY,THURSDAY,FRIDAY,SATURDAY,SUNDAY",1,109,0,PERCENT,25.8398,
RATEPLAN632,Season 1,CoastTsawwassenInn,SRCTI,1,2018-10-01,2019-04-30,"MONDAY,TUESDAY,WEDNESDAY,THURSDAY,FRIDAY,SATURDAY,SUNDAY",1,124,0,PERCENT,24.8929,
RATEPLAN633,Season 2,CoastTsawwassenInn,SRCTI,1,2019-05-01,2019-09-30,"MONDAY,TUESDAY,WEDNESDAY,THURSDAY,FRIDAY,SATURDAY,SUNDAY",1,146,0,PERCENT,24.2557,
RATEPLAN634,Season 3,CoastTsawwassenInn,SRCTI,1,2019-10-01,2020-04-30,"MONDAY,TUESDAY,WEDNESDAY,THURSDAY,FRIDAY,SATURDAY,SUNDAY",1,129,0,PERCENT,24.8508,
RATEPLAN635,Season 1,CoastCapriHotel,CRCCH,1,2018-10-01,2019-04-30,"MONDAY,TUESDAY,WEDNESDAY,THURSDAY,FRIDAY,SATURDAY,SUNDAY",1,110,0,PERCENT,32.4467,
RATEPLAN636,Season 2,CoastCapriHotel,CRCCH,1,2019-05-01,2019-09-30,"MONDAY,TUESDAY,WEDNESDAY,THURSDAY,FRIDAY,SATURDAY,SUNDAY",1,149,0,PERCENT,26.7051,
RATEPLAN637,Season 3,CoastCapriHotel,CRCCH,1,2019-10-01,2020-04-30,"MONDAY,TUESDAY,WEDNESDAY,THURSDAY,FRIDAY,SATURDAY,SUNDAY",1,111,0,PERCENT,23.4818,
RATEPLAN638,Season 1,CoastCapriHotel,SRCCH,1,2018-10-01,2019-04-30,"MONDAY,TUESDAY,WEDNESDAY,THURSDAY,FRIDAY,SATURDAY,SUNDAY",1,130,0,PERCENT,31.96,
RATEPLAN639,Season 2,CoastCapriHotel,SRCCH,1,2019-05-01,2019-09-30,"MONDAY,TUESDAY,WEDNESDAY,THURSDAY,FRIDAY,SATURDAY,SUNDAY",1,169,0,PERCENT,24.9745,
RATEPLAN640,Season 3,CoastCapriHotel,SRCCH,1,2019-10-01,2020-04-30,"MONDAY,TUESDAY,WEDNESDAY,THURSDAY,FRIDAY,SATURDAY,SUNDAY",1,131,0,PERCENT,24.3767,
RATEPLAN641,Season 1,CoastCapriHotel,PRCCH,1,2018-10-01,2019-04-30,"MONDAY,TUESDAY,WEDNESDAY,THURSDAY,FRIDAY,SATURDAY,SUNDAY",1,150,0,PERCENT,30.2007,
RATEPLAN642,Season 2,CoastCapriHotel,PRCCH,1,2019-05-01,2019-09-30,"MONDAY,TUESDAY,WEDNESDAY,THURSDAY,FRIDAY,SATURDAY,SUNDAY",1,184,0,PERCENT,30.7143,
RATEPLAN643,Season 3,CoastCapriHotel,PRCCH,1,2019-10-01,2020-04-30,"MONDAY,TUESDAY,WEDNESDAY,THURSDAY,FRIDAY,SATURDAY,SUNDAY",1,146,0,PERCENT,23.4074,
RATEPLAN644,Season 1,HotelGrandPacific,VRVRHGP,1,2019-03-01,2019-03-31,"MONDAY,TUESDAY,WEDNESDAY,THURSDAY,FRIDAY,SATURDAY,SUNDAY",1,109,0,PERCENT,39.9406,
RATEPLAN645,Season 2,HotelGrandPacific,VRVRHGP,1,2019-04-01,2019-04-30,"MONDAY,TUESDAY,WEDNESDAY,THURSDAY,FRIDAY,SATURDAY,SUNDAY",1,115,0,PERCENT,29.681,
RATEPLAN646,Season 3,HotelGrandPacific,VRVRHGP,1,2019-05-01,2019-06-30,"MONDAY,TUESDAY,WEDNESDAY,THURSDAY,FRIDAY,SATURDAY,SUNDAY",1,170,0,PERCENT,30.33,
RATEPLAN647,Season 4,HotelGrandPacific,VRVRHGP,1,2019-07-01,2019-08-29,"MONDAY,TUESDAY,WEDNESDAY,THURSDAY,FRIDAY,SATURDAY,SUNDAY",1,190,0,PERCENT,29.6194,
RATEPLAN648,Season 5,HotelGrandPacific,VRVRHGP,1,2019-08-30,2019-09-01,"MONDAY,TUESDAY,WEDNESDAY,THURSDAY,FRIDAY,SATURDAY,SUNDAY",1,229,0,PERCENT,29.8741,
RATEPLAN649,Season 6,HotelGrandPacific,VRVRHGP,1,2019-09-02,2019-09-30,"MONDAY,TUESDAY,WEDNESDAY,THURSDAY,FRIDAY,SATURDAY,SUNDAY",1,190,0,PERCENT,29.6194,
RATEPLAN650,Season 7,HotelGrandPacific,VRVRHGP,1,2019-10-01,2019-12-19,"MONDAY,TUESDAY,WEDNESDAY,THURSDAY,FRIDAY,SATURDAY,SUNDAY",1,115,0,PERCENT,29.681,
RATEPLAN651,Season 8,HotelGrandPacific,VRVRHGP,1,2019-12-20,2019-12-29,"MONDAY,TUESDAY,WEDNESDAY,THURSDAY,FRIDAY,SATURDAY,SUNDAY",1,145,0,PERCENT,29.2958,
RATEPLAN652,Season 9,HotelGrandPacific,VRVRHGP,1,2019-12-30,2020-02-13,"MONDAY,TUESDAY,WEDNESDAY,THURSDAY,FRIDAY,SATURDAY,SUNDAY",1,115,0,PERCENT,29.681,
RATEPLAN653,Season 10,HotelGrandPacific,VRVRHGP,1,2020-02-14,2020-02-16,"MONDAY,TUESDAY,WEDNESDAY,THURSDAY,FRIDAY,SATURDAY,SUNDAY",1,145,0,PERCENT,29.2958,
RATEPLAN654,Season 11,HotelGrandPacific,VRVRHGP,1,2020-02-17,2020-02-29,"MONDAY,TUESDAY,WEDNESDAY,THURSDAY,FRIDAY,SATURDAY,SUNDAY",1,115,0,PERCENT,29.681,
RATEPLAN655,Season 12,HotelGrandPacific,VRVRHGP,1,2020-03-01,2020-03-31,"MONDAY,TUESDAY,WEDNESDAY,THURSDAY,FRIDAY,SATURDAY,SUNDAY",1,119,0,PERCENT,28.8999,
RATEPLAN656,Season 1,HotelGrandPacific,VRVSHGP,1,2019-03-01,2019-03-31,"MONDAY,TUESDAY,WEDNESDAY,THURSDAY,FRIDAY,SATURDAY,SUNDAY",1,149,0,PERCENT,30.9794,
RATEPLAN657,Season 2,HotelGrandPacific,VRVSHGP,1,2019-04-01,2019-04-30,"MONDAY,TUESDAY,WEDNESDAY,THURSDAY,FRIDAY,SATURDAY,SUNDAY",1,165,0,PERCENT,29.1206,
RATEPLAN658,Season 3,HotelGrandPacific,VRVSHGP,1,2019-05-01,2019-06-30,"MONDAY,TUESDAY,WEDNESDAY,THURSDAY,FRIDAY,SATURDAY,SUNDAY",1,230,0,PERCENT,29.6815,
RATEPLAN659,Season 4,HotelGrandPacific,VRVSHGP,1,2019-07-01,2019-09-30,"MONDAY,TUESDAY,WEDNESDAY,THURSDAY,FRIDAY,SATURDAY,SUNDAY",1,270,0,PERCENT,29.4063,
RATEPLAN660,Season 5,HotelGrandPacific,VRVSHGP,1,2019-10-01,2020-02-29,"MONDAY,TUESDAY,WEDNESDAY,THURSDAY,FRIDAY,SATURDAY,SUNDAY",1,165,0,PERCENT,29.1206,
RATEPLAN661,Season 6,HotelGrandPacific,VRVSHGP,1,2020-03-01,2020-03-31,"MONDAY,TUESDAY,WEDNESDAY,THURSDAY,FRIDAY,SATURDAY,SUNDAY",1,169,0,PERCENT,30.6051,
RATEPLAN662,Season 1,HotelGrandPacific,PHVRHGP,1,2019-03-01,2019-03-31,"MONDAY,TUESDAY,WEDNESDAY,THURSDAY,FRIDAY,SATURDAY,SUNDAY",1,149,0,PERCENT,30.9794,
RATEPLAN663,Season 2,HotelGrandPacific,PHVRHGP,1,2019-04-01,2019-04-30,"MONDAY,TUESDAY,WEDNESDAY,THURSDAY,FRIDAY,SATURDAY,SUNDAY",1,165,0,PERCENT,29.1206,
RATEPLAN664,Season 3,HotelGrandPacific,PHVRHGP,1,2019-05-01,2019-06-30,"MONDAY,TUESDAY,WEDNESDAY,THURSDAY,FRIDAY,SATURDAY,SUNDAY",1,230,0,PERCENT,29.6815,
RATEPLAN665,Season 4,HotelGrandPacific,PHVRHGP,1,2019-07-01,2019-09-30,"MONDAY,TUESDAY,WEDNESDAY,THURSDAY,FRIDAY,SATURDAY,SUNDAY",1,270,0,PERCENT,29.4063,
RATEPLAN666,Season 5,HotelGrandPacific,PHVRHGP,1,2019-10-01,2020-02-29,"MONDAY,TUESDAY,WEDNESDAY,THURSDAY,FRIDAY,SATURDAY,SUNDAY",1,165,0,PERCENT,29.1206,
RATEPLAN667,Season 6,HotelGrandPacific,PHVRHGP,1,2020-03-01,2020-03-31,"MONDAY,TUESDAY,WEDNESDAY,THURSDAY,FRIDAY,SATURDAY,SUNDAY",1,169,0,PERCENT,30.6051,
RATEPLAN668,Season 1,HotelGrandPacific,PHVSHGP,1,2019-03-01,2019-03-31,"MONDAY,TUESDAY,WEDNESDAY,THURSDAY,FRIDAY,SATURDAY,SUNDAY",1,189,0,PERCENT,33.0136,
RATEPLAN669,Season 2,HotelGrandPacific,PHVSHGP,1,2019-04-01,2019-04-30,"MONDAY,TUESDAY,WEDNESDAY,THURSDAY,FRIDAY,SATURDAY,SUNDAY",1,205,0,PERCENT,30.5292,
RATEPLAN670,Season 3,HotelGrandPacific,PHVSHGP,1,2019-05-01,2019-06-30,"MONDAY,TUESDAY,WEDNESDAY,THURSDAY,FRIDAY,SATURDAY,SUNDAY",1,270,0,PERCENT,29.4063,
RATEPLAN671,Season 4,HotelGrandPacific,PHVSHGP,1,2019-07-01,2019-09-30,"MONDAY,TUESDAY,WEDNESDAY,THURSDAY,FRIDAY,SATURDAY,SUNDAY",1,310,0,PERCENT,29.7523,
RATEPLAN672,Season 5,HotelGrandPacific,PHVSHGP,1,2019-10-01,2020-03-31,"MONDAY,TUESDAY,WEDNESDAY,THURSDAY,FRIDAY,SATURDAY,SUNDAY",1,205,0,PERCENT,30.5292,
RATEPLAN673,Season 1,OswegoHotel,SSOH,1,2019-02-11,2019-03-31,"MONDAY,TUESDAY,WEDNESDAY,THURSDAY,FRIDAY,SATURDAY,SUNDAY",1,105,0,PERCENT,30.0583,
RATEPLAN674,Season 2,OswegoHotel,SSOH,1,2019-04-01,2019-04-18,"MONDAY,TUESDAY,WEDNESDAY,THURSDAY,FRIDAY,SATURDAY,SUNDAY",1,109,0,PERCENT,33.1266,
RATEPLAN675,Season 3,OswegoHotel,SSOH,1,2019-04-19,2019-04-21,"MONDAY,TUESDAY,WEDNESDAY,THURSDAY,FRIDAY,SATURDAY,SUNDAY",1,215,0,PERCENT,27.0411,
RATEPLAN676,Season 4,OswegoHotel,SSOH,1,2019-04-22,2019-05-16,"MONDAY,TUESDAY,WEDNESDAY,THURSDAY,FRIDAY,SATURDAY,SUNDAY",1,109,0,PERCENT,33.1266,
RATEPLAN677,Season 5,OswegoHotel,SSOH,1,2019-05-17,2019-05-19,"MONDAY,TUESDAY,WEDNESDAY,THURSDAY,FRIDAY,SATURDAY,SUNDAY",1,215,0,PERCENT,27.0411,
RATEPLAN678,Season 6,OswegoHotel,SSOH,1,2019-05-20,2019-05-23,"MONDAY,TUESDAY,WEDNESDAY,THURSDAY,FRIDAY,SATURDAY,SUNDAY",1,109,0,PERCENT,33.1266,
RATEPLAN679,Season 7,OswegoHotel,SSOH,1,2019-05-24,2019-05-26,"MONDAY,TUESDAY,WEDNESDAY,THURSDAY,FRIDAY,SATURDAY,SUNDAY",1,215,0,PERCENT,27.0411,
RATEPLAN680,Season 8,OswegoHotel,SSOH,1,2019-05-27,2019-05-31,"MONDAY,TUESDAY,WEDNESDAY,THURSDAY,FRIDAY,SATURDAY,SUNDAY",1,109,0,PERCENT,33.1266,
RATEPLAN681,Season 9,OswegoHotel,SSOH,1,2019-06-01,2019-06-27,"MONDAY,TUESDAY,WEDNESDAY,THURSDAY,FRIDAY,SATURDAY,SUNDAY",1,151,0,PERCENT,35.6637,
RATEPLAN682,Season 10,OswegoHotel,SSOH,1,2019-06-28,2019-06-30,"MONDAY,TUESDAY,WEDNESDAY,THURSDAY,FRIDAY,SATURDAY,SUNDAY",1,215,0,PERCENT,34.9797,
RATEPLAN683,Season 11,OswegoHotel,SSOH,1,2019-07-01,2019-08-01,"MONDAY,TUESDAY,WEDNESDAY,THURSDAY,FRIDAY,SATURDAY,SUNDAY",1,151,0,PERCENT,35.6637,
RATEPLAN684,Season 12,OswegoHotel,SSOH,1,2019-08-02,2019-08-04,"MONDAY,TUESDAY,WEDNESDAY,THURSDAY,FRIDAY,SATURDAY,SUNDAY",1,215,0,PERCENT,34.9797,
RATEPLAN685,Season 13,OswegoHotel,SSOH,1,2019-08-05,2019-08-29,"MONDAY,TUESDAY,WEDNESDAY,THURSDAY,FRIDAY,SATURDAY,SUNDAY",1,151,0,PERCENT,35.6637,
RATEPLAN686,Season 14,OswegoHotel,SSOH,1,2019-08-30,2019-09-01,"MONDAY,TUESDAY,WEDNESDAY,THURSDAY,FRIDAY,SATURDAY,SUNDAY",1,215,0,PERCENT,34.9797,
RATEPLAN687,Season 15,OswegoHotel,SSOH,1,2019-09-02,2019-09-30,"MONDAY,TUESDAY,WEDNESDAY,THURSDAY,FRIDAY,SATURDAY,SUNDAY",1,151,0,PERCENT,35.6637,
RATEPLAN688,Season 16,OswegoHotel,SSOH,1,2019-10-01,2019-10-10,"MONDAY,TUESDAY,WEDNESDAY,THURSDAY,FRIDAY,SATURDAY,SUNDAY",1,109,0,PERCENT,29.9923,
RATEPLAN689,Season 17,OswegoHotel,SSOH,1,2019-10-11,2019-10-13,"MONDAY,TUESDAY,WEDNESDAY,THURSDAY,FRIDAY,SATURDAY,SUNDAY",1,215,0,PERCENT,23.0681,
RATEPLAN690,Season 18,OswegoHotel,SSOH,1,2019-10-14,2019-11-07,"MONDAY,TUESDAY,WEDNESDAY,THURSDAY,FRIDAY,SATURDAY,SUNDAY",1,109,0,PERCENT,29.9923,
RATEPLAN691,Season 19,OswegoHotel,SSOH,1,2019-11-08,2019-11-10,"MONDAY,TUESDAY,WEDNESDAY,THURSDAY,FRIDAY,SATURDAY,SUNDAY",1,215,0,PERCENT,23.0681,
RATEPLAN692,Season 20,OswegoHotel,SSOH,1,2019-11-11,2019-11-27,"MONDAY,TUESDAY,WEDNESDAY,THURSDAY,FRIDAY,SATURDAY,SUNDAY",1,109,0,PERCENT,29.9923,
RATEPLAN693,Season 21,OswegoHotel,SSOH,1,2019-11-28,2019-11-30,"MONDAY,TUESDAY,WEDNESDAY,THURSDAY,FRIDAY,SATURDAY,SUNDAY",1,215,0,PERCENT,23.0681,
RATEPLAN694,Season 22,OswegoHotel,SSOH,1,2019-12-01,2019-12-19,"MONDAY,TUESDAY,WEDNESDAY,THURSDAY,FRIDAY,SATURDAY,SUNDAY",1,109,0,PERCENT,29.9923,
RATEPLAN695,Season 23,OswegoHotel,SSOH,1,2019-12-20,2019-12-29,"MONDAY,TUESDAY,WEDNESDAY,THURSDAY,FRIDAY,SATURDAY,SUNDAY",1,215,0,PERCENT,23.0681,
RATEPLAN696,Season 24,OswegoHotel,SSOH,1,2019-12-30,2020-01-16,"MONDAY,TUESDAY,WEDNESDAY,THURSDAY,FRIDAY,SATURDAY,SUNDAY",1,109,0,PERCENT,29.9923,
RATEPLAN697,Season 25,OswegoHotel,SSOH,1,2020-01-17,2020-01-19,"MONDAY,TUESDAY,WEDNESDAY,THURSDAY,FRIDAY,SATURDAY,SUNDAY",1,161,0,PERCENT,27.2337,
RATEPLAN698,Season 26,OswegoHotel,SSOH,1,2020-01-20,2020-02-06,"MONDAY,TUESDAY,WEDNESDAY,THURSDAY,FRIDAY,SATURDAY,SUNDAY",1,109,0,PERCENT,29.9923,
RATEPLAN699,Season 27,OswegoHotel,SSOH,1,2020-02-07,2020-02-09,"MONDAY,TUESDAY,WEDNESDAY,THURSDAY,FRIDAY,SATURDAY,SUNDAY",1,161,0,PERCENT,27.2337,
RATEPLAN700,Season 28,OswegoHotel,SSOH,1,2020-02-10,2020-03-31,"MONDAY,TUESDAY,WEDNESDAY,THURSDAY,FRIDAY,SATURDAY,SUNDAY",1,109,0,PERCENT,29.9923,
RATEPLAN701,Season 1,OswegoHotel,OBSOH,1,2019-02-11,2019-03-31,"MONDAY,TUESDAY,WEDNESDAY,THURSDAY,FRIDAY,SATURDAY,SUNDAY",1,115,0,PERCENT,32.8549,
RATEPLAN702,Season 2,OswegoHotel,OBSOH,1,2019-04-01,2019-04-18,"MONDAY,TUESDAY,WEDNESDAY,THURSDAY,FRIDAY,SATURDAY,SUNDAY",1,119,0,PERCENT,32.6907,
RATEPLAN703,Season 3,OswegoHotel,OBSOH,1,2019-04-19,2019-04-21,"MONDAY,TUESDAY,WEDNESDAY,THURSDAY,FRIDAY,SATURDAY,SUNDAY",1,269,0,PERCENT,26.9208,
RATEPLAN704,Season 4,OswegoHotel,OBSOH,1,2019-04-22,2019-05-16,"MONDAY,TUESDAY,WEDNESDAY,THURSDAY,FRIDAY,SATURDAY,SUNDAY",1,119,0,PERCENT,32.6907,
RATEPLAN705,Season 5,OswegoHotel,OBSOH,1,2019-05-17,2019-05-19,"MONDAY,TUESDAY,WEDNESDAY,THURSDAY,FRIDAY,SATURDAY,SUNDAY",1,269,0,PERCENT,26.9208,
RATEPLAN706,Season 6,OswegoHotel,OBSOH,1,2019-05-20,2019-05-23,"MONDAY,TUESDAY,WEDNESDAY,THURSDAY,FRIDAY,SATURDAY,SUNDAY",1,119,0,PERCENT,32.6907,
RATEPLAN707,Season 7,OswegoHotel,OBSOH,1,2019-05-24,2019-05-26,"MONDAY,TUESDAY,WEDNESDAY,THURSDAY,FRIDAY,SATURDAY,SUNDAY",1,269,0,PERCENT,26.9208,
RATEPLAN708,Season 8,OswegoHotel,OBSOH,1,2019-05-27,2019-05-31,"MONDAY,TUESDAY,WEDNESDAY,THURSDAY,FRIDAY,SATURDAY,SUNDAY",1,119,0,PERCENT,32.6907,
RATEPLAN709,Season 9,OswegoHotel,OBSOH,1,2019-06-01,2019-06-27,"MONDAY,TUESDAY,WEDNESDAY,THURSDAY,FRIDAY,SATURDAY,SUNDAY",1,180,0,PERCENT,32.771,
RATEPLAN710,Season 10,OswegoHotel,OBSOH,1,2019-06-28,2019-06-30,"MONDAY,TUESDAY,WEDNESDAY,THURSDAY,FRIDAY,SATURDAY,SUNDAY",1,269,0,PERCENT,26.9208,
RATEPLAN711,Season 11,OswegoHotel,OBSOH,1,2019-07-01,2019-08-01,"MONDAY,TUESDAY,WEDNESDAY,THURSDAY,FRIDAY,SATURDAY,SUNDAY",1,180,0,PERCENT,32.771,
RATEPLAN712,Season 12,OswegoHotel,OBSOH,1,2019-08-02,2019-08-04,"MONDAY,TUESDAY,WEDNESDAY,THURSDAY,FRIDAY,SATURDAY,SUNDAY",1,269,0,PERCENT,26.9208,
RATEPLAN713,Season 13,OswegoHotel,OBSOH,1,2019-08-05,2019-08-29,"MONDAY,TUESDAY,WEDNESDAY,THURSDAY,FRIDAY,SATURDAY,SUNDAY",1,180,0,PERCENT,32.771,
RATEPLAN714,Season 14,OswegoHotel,OBSOH,1,2019-08-30,2019-09-01,"MONDAY,TUESDAY,WEDNESDAY,THURSDAY,FRIDAY,SATURDAY,SUNDAY",1,269,0,PERCENT,26.9208,
RATEPLAN715,Season 15,OswegoHotel,OBSOH,1,2019-09-02,2019-09-30,"MONDAY,TUESDAY,WEDNESDAY,THURSDAY,FRIDAY,SATURDAY,SUNDAY",1,180,0,PERCENT,32.771,
RATEPLAN716,Season 16,OswegoHotel,OBSOH,1,2019-10-01,2019-10-10,"MONDAY,TUESDAY,WEDNESDAY,THURSDAY,FRIDAY,SATURDAY,SUNDAY",1,119,0,PERCENT,32.6907,
RATEPLAN717,Season 17,OswegoHotel,OBSOH,1,2019-10-11,2019-10-13,"MONDAY,TUESDAY,WEDNESDAY,THURSDAY,FRIDAY,SATURDAY,SUNDAY",1,269,0,PERCENT,26.9208,
RATEPLAN718,Season 18,OswegoHotel,OBSOH,1,2019-10-14,2019-11-07,"MONDAY,TUESDAY,WEDNESDAY,THURSDAY,FRIDAY,SATURDAY,SUNDAY",1,119,0,PERCENT,32.6907,
RATEPLAN719,Season 19,OswegoHotel,OBSOH,1,2019-11-08,2019-11-10,"MONDAY,TUESDAY,WEDNESDAY,THURSDAY,FRIDAY,SATURDAY,SUNDAY",1,269,0,PERCENT,26.9208,
RATEPLAN720,Season 20,OswegoHotel,OBSOH,1,2019-11-11,2019-11-27,"MONDAY,TUESDAY,WEDNESDAY,THURSDAY,FRIDAY,SATURDAY,SUNDAY",1,119,0,PERCENT,32.6907,
RATEPLAN721,Season 21,OswegoHotel,OBSOH,1,2019-11-28,2019-11-30,"MONDAY,TUESDAY,WEDNESDAY,THURSDAY,FRIDAY,SATURDAY,SUNDAY",1,269,0,PERCENT,26.9208,
RATEPLAN722,Season 22,OswegoHotel,OBSOH,1,2019-12-01,2019-12-19,"MONDAY,TUESDAY,WEDNESDAY,THURSDAY,FRIDAY,SATURDAY,SUNDAY",1,119,0,PERCENT,32.6907,
RATEPLAN723,Season 23,OswegoHotel,OBSOH,1,2019-12-20,2019-12-29,"MONDAY,TUESDAY,WEDNESDAY,THURSDAY,FRIDAY,SATURDAY,SUNDAY",1,269,0,PERCENT,26.9208,
RATEPLAN724,Season 24,OswegoHotel,OBSOH,1,2019-12-30,2020-01-16,"MONDAY,TUESDAY,WEDNESDAY,THURSDAY,FRIDAY,SATURDAY,SUNDAY",1,119,0,PERCENT,32.6907,
RATEPLAN725,Season 25,OswegoHotel,OBSOH,1,2020-01-17,2020-01-19,"MONDAY,TUESDAY,WEDNESDAY,THURSDAY,FRIDAY,SATURDAY,SUNDAY",1,183,0,PERCENT,30.5984,
RATEPLAN726,Season 26,OswegoHotel,OBSOH,1,2020-01-20,2020-02-06,"MONDAY,TUESDAY,WEDNESDAY,THURSDAY,FRIDAY,SATURDAY,SUNDAY",1,119,0,PERCENT,32.6907,
RATEPLAN727,Season 27,OswegoHotel,OBSOH,1,2020-02-07,2020-02-09,"MONDAY,TUESDAY,WEDNESDAY,THURSDAY,FRIDAY,SATURDAY,SUNDAY",1,183,0,PERCENT,30.5984,
RATEPLAN728,Season 28,OswegoHotel,OBSOH,1,2020-02-10,2020-03-31,"MONDAY,TUESDAY,WEDNESDAY,THURSDAY,FRIDAY,SATURDAY,SUNDAY",1,119,0,PERCENT,32.6907,
RATEPLAN729,Season 1,OswegoHotel,OBPSOH,1,2019-02-11,2019-03-31,"MONDAY,TUESDAY,WEDNESDAY,THURSDAY,FRIDAY,SATURDAY,SUNDAY",1,138,0,PERCENT,32.3577,
RATEPLAN730,Season 2,OswegoHotel,OBPSOH,1,2019-04-01,2019-04-18,"MONDAY,TUESDAY,WEDNESDAY,THURSDAY,FRIDAY,SATURDAY,SUNDAY",1,142,0,PERCENT,32.2338,
RATEPLAN731,Season 3,OswegoHotel,OBPSOH,1,2019-04-19,2019-04-21,"MONDAY,TUESDAY,WEDNESDAY,THURSDAY,FRIDAY,SATURDAY,SUNDAY",1,290,0,PERCENT,29.5031,
RATEPLAN732,Season 4,OswegoHotel,OBPSOH,1,2019-04-22,2019-05-16,"MONDAY,TUESDAY,WEDNESDAY,THURSDAY,FRIDAY,SATURDAY,SUNDAY",1,142,0,PERCENT,32.2338,
RATEPLAN733,Season 5,OswegoHotel,OBPSOH,1,2019-05-17,2019-05-19,"MONDAY,TUESDAY,WEDNESDAY,THURSDAY,FRIDAY,SATURDAY,SUNDAY",1,290,0,PERCENT,29.5031,
RATEPLAN734,Season 6,OswegoHotel,OBPSOH,1,2019-05-20,2019-05-23,"MONDAY,TUESDAY,WEDNESDAY,THURSDAY,FRIDAY,SATURDAY,SUNDAY",1,142,0,PERCENT,32.2338,
RATEPLAN735,Season 7,OswegoHotel,OBPSOH,1,2019-05-24,2019-05-26,"MONDAY,TUESDAY,WEDNESDAY,THURSDAY,FRIDAY,SATURDAY,SUNDAY",1,290,0,PERCENT,29.5031,
RATEPLAN736,Season 8,OswegoHotel,OBPSOH,1,2019-05-27,2019-05-31,"MONDAY,TUESDAY,WEDNESDAY,THURSDAY,FRIDAY,SATURDAY,SUNDAY",1,142,0,PERCENT,32.2338,
RATEPLAN737,Season 9,OswegoHotel,OBPSOH,1,2019-06-01,2019-06-27,"MONDAY,TUESDAY,WEDNESDAY,THURSDAY,FRIDAY,SATURDAY,SUNDAY",1,203,0,PERCENT,30.3471,
RATEPLAN738,Season 10,OswegoHotel,OBPSOH,1,2019-06-28,2019-06-30,"MONDAY,TUESDAY,WEDNESDAY,THURSDAY,FRIDAY,SATURDAY,SUNDAY",1,290,0,PERCENT,29.5031,
RATEPLAN739,Season 11,OswegoHotel,OBPSOH,1,2019-07-01,2019-08-01,"MONDAY,TUESDAY,WEDNESDAY,THURSDAY,FRIDAY,SATURDAY,SUNDAY",1,203,0,PERCENT,30.3471,
RATEPLAN740,Season 12,OswegoHotel,OBPSOH,1,2019-08-02,2019-08-04,"MONDAY,TUESDAY,WEDNESDAY,THURSDAY,FRIDAY,SATURDAY,SUNDAY",1,290,0,PERCENT,32.4459,
RATEPLAN741,Season 13,OswegoHotel,OBPSOH,1,2019-08-05,2019-08-29,"MONDAY,TUESDAY,WEDNESDAY,THURSDAY,FRIDAY,SATURDAY,SUNDAY",1,203,0,PERCENT,30.3471,
RATEPLAN742,Season 14,OswegoHotel,OBPSOH,1,2019-08-30,2019-09-01,"MONDAY,TUESDAY,WEDNESDAY,THURSDAY,FRIDAY,SATURDAY,SUNDAY",1,290,0,PERCENT,32.4459,
RATEPLAN743,Season 15,OswegoHotel,OBPSOH,1,2019-09-02,2019-09-30,"MONDAY,TUESDAY,WEDNESDAY,THURSDAY,FRIDAY,SATURDAY,SUNDAY",1,203,0,PERCENT,30.3471,
RATEPLAN744,Season 16,OswegoHotel,OBPSOH,1,2019-10-01,2019-10-10,"MONDAY,TUESDAY,WEDNESDAY,THURSDAY,FRIDAY,SATURDAY,SUNDAY",1,142,0,PERCENT,32.2338,
RATEPLAN745,Season 17,OswegoHotel,OBPSOH,1,2019-10-11,2019-10-13,"MONDAY,TUESDAY,WEDNESDAY,THURSDAY,FRIDAY,SATURDAY,SUNDAY",1,290,0,PERCENT,29.5031,
RATEPLAN746,Season 18,OswegoHotel,OBPSOH,1,2019-10-14,2019-11-07,"MONDAY,TUESDAY,WEDNESDAY,THURSDAY,FRIDAY,SATURDAY,SUNDAY",1,142,0,PERCENT,32.2338,
RATEPLAN747,Season 19,OswegoHotel,OBPSOH,1,2019-11-08,2019-11-10,"MONDAY,TUESDAY,WEDNESDAY,THURSDAY,FRIDAY,SATURDAY,SUNDAY",1,290,0,PERCENT,29.5031,
RATEPLAN748,Season 20,OswegoHotel,OBPSOH,1,2019-11-11,2019-11-27,"MONDAY,TUESDAY,WEDNESDAY,THURSDAY,FRIDAY,SATURDAY,SUNDAY",1,142,0,PERCENT,32.2338,
RATEPLAN749,Season 21,OswegoHotel,OBPSOH,1,2019-11-28,2019-11-30,"MONDAY,TUESDAY,WEDNESDAY,THURSDAY,FRIDAY,SATURDAY,SUNDAY",1,290,0,PERCENT,29.5031,
RATEPLAN750,Season 22,OswegoHotel,OBPSOH,1,2019-12-01,2019-12-19,"MONDAY,TUESDAY,WEDNESDAY,THURSDAY,FRIDAY,SATURDAY,SUNDAY",1,142,0,PERCENT,32.2338,
RATEPLAN751,Season 23,OswegoHotel,OBPSOH,1,2019-12-20,2019-12-29,"MONDAY,TUESDAY,WEDNESDAY,THURSDAY,FRIDAY,SATURDAY,SUNDAY",1,290,0,PERCENT,29.5031,
RATEPLAN752,Season 24,OswegoHotel,OBPSOH,1,2019-12-30,2020-01-16,"MONDAY,TUESDAY,WEDNESDAY,THURSDAY,FRIDAY,SATURDAY,SUNDAY",1,142,0,PERCENT,32.2338,
RATEPLAN753,Season 25,OswegoHotel,OBPSOH,1,2020-01-17,2020-01-19,"MONDAY,TUESDAY,WEDNESDAY,THURSDAY,FRIDAY,SATURDAY,SUNDAY",1,199,0,PERCENT,28.6718,
RATEPLAN754,Season 26,OswegoHotel,OBPSOH,1,2020-01-20,2020-02-06,"MONDAY,TUESDAY,WEDNESDAY,THURSDAY,FRIDAY,SATURDAY,SUNDAY",1,142,0,PERCENT,32.2338,
RATEPLAN755,Season 27,OswegoHotel,OBPSOH,1,2020-02-07,2020-02-09,"MONDAY,TUESDAY,WEDNESDAY,THURSDAY,FRIDAY,SATURDAY,SUNDAY",1,199,0,PERCENT,28.6718,
RATEPLAN756,Season 28,OswegoHotel,OBPSOH,1,2020-02-10,2020-03-31,"MONDAY,TUESDAY,WEDNESDAY,THURSDAY,FRIDAY,SATURDAY,SUNDAY",1,142,0,PERCENT,32.2338,
RATEPLAN757,Season 1,OswegoHotel,TBSOH,1,2019-02-11,2019-03-31,"MONDAY,TUESDAY,WEDNESDAY,THURSDAY,FRIDAY,SATURDAY,SUNDAY",1,259,0,PERCENT,28.1967,
RATEPLAN758,Season 2,OswegoHotel,TBSOH,1,2019-04-01,2019-04-18,"MONDAY,TUESDAY,WEDNESDAY,THURSDAY,FRIDAY,SATURDAY,SUNDAY",1,269,0,PERCENT,26.9181,
RATEPLAN759,Season 3,OswegoHotel,TBSOH,1,2019-04-19,2019-04-21,"MONDAY,TUESDAY,WEDNESDAY,THURSDAY,FRIDAY,SATURDAY,SUNDAY",1,414,0,PERCENT,29.8865,
RATEPLAN760,Season 4,OswegoHotel,TBSOH,1,2019-04-22,2019-05-16,"MONDAY,TUESDAY,WEDNESDAY,THURSDAY,FRIDAY,SATURDAY,SUNDAY",1,269,0,PERCENT,26.9181,
RATEPLAN761,Season 5,OswegoHotel,TBSOH,1,2019-05-17,2019-05-19,"MONDAY,TUESDAY,WEDNESDAY,THURSDAY,FRIDAY,SATURDAY,SUNDAY",1,414,0,PERCENT,29.8865,
RATEPLAN762,Season 6,OswegoHotel,TBSOH,1,2019-05-20,2019-05-23,"MONDAY,TUESDAY,WEDNESDAY,THURSDAY,FRIDAY,SATURDAY,SUNDAY",1,269,0,PERCENT,26.9181,
RATEPLAN763,Season 7,OswegoHotel,TBSOH,1,2019-05-24,2019-05-26,"MONDAY,TUESDAY,WEDNESDAY,THURSDAY,FRIDAY,SATURDAY,SUNDAY",1,414,0,PERCENT,29.8865,
RATEPLAN764,Season 8,OswegoHotel,TBSOH,1,2019-05-27,2019-05-31,"MONDAY,TUESDAY,WEDNESDAY,THURSDAY,FRIDAY,SATURDAY,SUNDAY",1,269,0,PERCENT,26.9181,
RATEPLAN765,Season 9,OswegoHotel,TBSOH,1,2019-06-01,2019-06-27,"MONDAY,TUESDAY,WEDNESDAY,THURSDAY,FRIDAY,SATURDAY,SUNDAY",1,341,0,PERCENT,30.1563,
RATEPLAN766,Season 10,OswegoHotel,TBSOH,1,2019-06-28,2019-06-30,"MONDAY,TUESDAY,WEDNESDAY,THURSDAY,FRIDAY,SATURDAY,SUNDAY",1,414,0,PERCENT,31.9476,
RATEPLAN767,Season 11,OswegoHotel,TBSOH,1,2019-07-01,2019-08-01,"MONDAY,TUESDAY,WEDNESDAY,THURSDAY,FRIDAY,SATURDAY,SUNDAY",1,341,0,PERCENT,30.1563,
RATEPLAN768,Season 12,OswegoHotel,TBSOH,1,2019-08-02,2019-08-04,"MONDAY,TUESDAY,WEDNESDAY,THURSDAY,FRIDAY,SATURDAY,SUNDAY",1,414,0,PERCENT,31.9476,
RATEPLAN769,Season 13,OswegoHotel,TBSOH,1,2019-08-05,2019-08-29,"MONDAY,TUESDAY,WEDNESDAY,THURSDAY,FRIDAY,SATURDAY,SUNDAY",1,341,0,PERCENT,30.1563,
RATEPLAN770,Season 14,OswegoHotel,TBSOH,1,2019-08-30,2019-09-01,"MONDAY,TUESDAY,WEDNESDAY,THURSDAY,FRIDAY,SATURDAY,SUNDAY",1,141,0,PERCENT,31.9476,
RATEPLAN771,Season 15,OswegoHotel,TBSOH,1,2019-09-02,2019-09-30,"MONDAY,TUESDAY,WEDNESDAY,THURSDAY,FRIDAY,SATURDAY,SUNDAY",1,341,0,PERCENT,30.1563,
RATEPLAN772,Season 16,OswegoHotel,TBSOH,1,2019-10-01,2019-10-10,"MONDAY,TUESDAY,WEDNESDAY,THURSDAY,FRIDAY,SATURDAY,SUNDAY",1,269,0,PERCENT,26.9181,
RATEPLAN773,Season 17,OswegoHotel,TBSOH,1,2019-10-11,2019-10-13,"MONDAY,TUESDAY,WEDNESDAY,THURSDAY,FRIDAY,SATURDAY,SUNDAY",1,414,0,PERCENT,29.8865,
RATEPLAN774,Season 18,OswegoHotel,TBSOH,1,2019-10-14,2019-11-07,"MONDAY,TUESDAY,WEDNESDAY,THURSDAY,FRIDAY,SATURDAY,SUNDAY",1,269,0,PERCENT,26.9181,
RATEPLAN775,Season 19,OswegoHotel,TBSOH,1,2019-11-08,2019-11-10,"MONDAY,TUESDAY,WEDNESDAY,THURSDAY,FRIDAY,SATURDAY,SUNDAY",1,414,0,PERCENT,29.8865,
RATEPLAN776,Season 20,OswegoHotel,TBSOH,1,2019-11-11,2019-11-27,"MONDAY,TUESDAY,WEDNESDAY,THURSDAY,FRIDAY,SATURDAY,SUNDAY",1,269,0,PERCENT,26.9181,
RATEPLAN777,Season 21,OswegoHotel,TBSOH,1,2019-11-28,2019-11-30,"MONDAY,TUESDAY,WEDNESDAY,THURSDAY,FRIDAY,SATURDAY,SUNDAY",1,414,0,PERCENT,29.8865,
RATEPLAN778,Season 22,OswegoHotel,TBSOH,1,2019-12-01,2019-12-19,"MONDAY,TUESDAY,WEDNESDAY,THURSDAY,FRIDAY,SATURDAY,SUNDAY",1,269,0,PERCENT,26.9181,
RATEPLAN779,Season 23,OswegoHotel,TBSOH,1,2019-12-20,2019-12-29,"MONDAY,TUESDAY,WEDNESDAY,THURSDAY,FRIDAY,SATURDAY,SUNDAY",1,414,0,PERCENT,29.8865,
RATEPLAN780,Season 24,OswegoHotel,TBSOH,1,2019-12-30,2020-01-16,"MONDAY,TUESDAY,WEDNESDAY,THURSDAY,FRIDAY,SATURDAY,SUNDAY",1,269,0,PERCENT,26.9181,
RATEPLAN781,Season 25,OswegoHotel,TBSOH,1,2020-01-17,2020-01-19,"MONDAY,TUESDAY,WEDNESDAY,THURSDAY,FRIDAY,SATURDAY,SUNDAY",1,294,0,PERCENT,27.7403,
RATEPLAN782,Season 26,OswegoHotel,TBSOH,1,2020-01-20,2020-02-06,"MONDAY,TUESDAY,WEDNESDAY,THURSDAY,FRIDAY,SATURDAY,SUNDAY",1,269,0,PERCENT,26.9181,
RATEPLAN783,Season 27,OswegoHotel,TBSOH,1,2020-02-07,2020-02-09,"MONDAY,TUESDAY,WEDNESDAY,THURSDAY,FRIDAY,SATURDAY,SUNDAY",1,294,0,PERCENT,27.7403,
RATEPLAN784,Season 28,OswegoHotel,TBSOH,1,2020-02-10,2020-03-31,"MONDAY,TUESDAY,WEDNESDAY,THURSDAY,FRIDAY,SATURDAY,SUNDAY",1,269,0,PERCENT,26.9181,
RATEPLAN785,Season 1,EaglesNestResort,SENR,1,2019-05-01,2019-31-10,"MONDAY,TUESDAY,WEDNESDAY,THURSDAY,FRIDAY,SATURDAY,SUNDAY",1,136,0,PERCENT,19.7998,
RATEPLAN786,Season 1,ChateauVictoria,TRCV,1,2019-01-01,2019-03-31,"MONDAY,TUESDAY,WEDNESDAY,THURSDAY,FRIDAY,SATURDAY,SUNDAY",1,110,0,PERCENT,31.1308,
RATEPLAN787,Season 2,ChateauVictoria,TRCV,1,2019-04-01,2019-04-30,"MONDAY,TUESDAY,WEDNESDAY,THURSDAY,FRIDAY,SATURDAY,SUNDAY",1,110,0,PERCENT,27.2536,
RATEPLAN788,Season 3,ChateauVictoria,TRCV,1,2019-05-01,2019-05-30,"MONDAY,TUESDAY,WEDNESDAY,THURSDAY,FRIDAY,SATURDAY,SUNDAY",1,145,0,PERCENT,25.9701,
RATEPLAN789,Season 4,ChateauVictoria,TRCV,1,2019-06-01,2019-09-30,"MONDAY,TUESDAY,WEDNESDAY,THURSDAY,FRIDAY,SATURDAY,SUNDAY",1,184,0,PERCENT,26.1754,
RATEPLAN790,Season 5,ChateauVictoria,TRCV,1,2019-10-01,2020-02-29,"MONDAY,TUESDAY,WEDNESDAY,THURSDAY,FRIDAY,SATURDAY,SUNDAY",1,110,0,PERCENT,27.2506,
RATEPLAN791,Season 6,ChateauVictoria,TRCV,1,2020-03-01,2020-03-31,"MONDAY,TUESDAY,WEDNESDAY,THURSDAY,FRIDAY,SATURDAY,SUNDAY",1,120,0,PERCENT,26.6113,
RATEPLAN792,Season 1,ChateauVictoria,OBSCV,1,2019-01-01,2019-03-31,"MONDAY,TUESDAY,WEDNESDAY,THURSDAY,FRIDAY,SATURDAY,SUNDAY",1,130,0,PERCENT,30.6522,
RATEPLAN793,Season 2,ChateauVictoria,OBSCV,1,2019-04-01,2019-04-30,"MONDAY,TUESDAY,WEDNESDAY,THURSDAY,FRIDAY,SATURDAY,SUNDAY",1,130,0,PERCENT,27.3715,
RATEPLAN794,Season 3,ChateauVictoria,OBSCV,1,2019-05-01,2019-05-30,"MONDAY,TUESDAY,WEDNESDAY,THURSDAY,FRIDAY,SATURDAY,SUNDAY",1,195,0,PERCENT,26.5001,
RATEPLAN795,Season 4,ChateauVictoria,OBSCV,1,2019-06-01,2019-09-30,"MONDAY,TUESDAY,WEDNESDAY,THURSDAY,FRIDAY,SATURDAY,SUNDAY",1,242,0,PERCENT,26.6177,
RATEPLAN796,Season 5,ChateauVictoria,OBSCV,1,2019-10-01,2020-02-29,"MONDAY,TUESDAY,WEDNESDAY,THURSDAY,FRIDAY,SATURDAY,SUNDAY",1,130,0,PERCENT,27.3715,
RATEPLAN797,Season 6,ChateauVictoria,OBSCV,1,2020-03-01,2020-03-31,"MONDAY,TUESDAY,WEDNESDAY,THURSDAY,FRIDAY,SATURDAY,SUNDAY",1,144,0,PERCENT,27.4354,
RATEPLAN798,Season 1,ChateauVictoria,TBSCV,1,2019-01-01,2019-03-31,"MONDAY,TUESDAY,WEDNESDAY,THURSDAY,FRIDAY,SATURDAY,SUNDAY",1,292,0,PERCENT,29.7824,
RATEPLAN799,Season 2,ChateauVictoria,TBSCV,1,2019-04-01,2019-04-30,"MONDAY,TUESDAY,WEDNESDAY,THURSDAY,FRIDAY,SATURDAY,SUNDAY",1,319,0,PERCENT,27.0933,
RATEPLAN800,Season 3,ChateauVictoria,TBSCV,1,2019-05-01,2019-05-30,"MONDAY,TUESDAY,WEDNESDAY,THURSDAY,FRIDAY,SATURDAY,SUNDAY",1,367,0,PERCENT,27.6793,
RATEPLAN801,Season 4,ChateauVictoria,TBSCV,1,2019-06-01,2019-09-30,"MONDAY,TUESDAY,WEDNESDAY,THURSDAY,FRIDAY,SATURDAY,SUNDAY",1,399,0,PERCENT,27.0674,
RATEPLAN802,Season 5,ChateauVictoria,TBSCV,1,2019-10-01,2020-02-29,"MONDAY,TUESDAY,WEDNESDAY,THURSDAY,FRIDAY,SATURDAY,SUNDAY",1,319,0,PERCENT,27.0933,
RATEPLAN803,Season 6,ChateauVictoria,TBSCV,1,2020-03-01,2020-03-31,"MONDAY,TUESDAY,WEDNESDAY,THURSDAY,FRIDAY,SATURDAY,SUNDAY",1,335,0,PERCENT,27.1369,
RATEPLAN804,Season 1,BeachClubResort,SSBCR,1,2019-01-01,2019-04-30,"MONDAY,TUESDAY,WEDNESDAY,THURSDAY,FRIDAY,SATURDAY,SUNDAY",1,102,0,PERCENT,27.8742,
RATEPLAN805,Season 2,BeachClubResort,SSBCR,1,2019-05-01,2019-06-20,"MONDAY,TUESDAY,WEDNESDAY,THURSDAY,FRIDAY,SATURDAY,SUNDAY",1,138,0,PERCENT,29.1749,
RATEPLAN806,Season 3,BeachClubResort,SSBCR,1,2019-06-21,2019-09-02,"MONDAY,TUESDAY,WEDNESDAY,THURSDAY,FRIDAY,SATURDAY,SUNDAY",1,207,0,PERCENT,30.2239,
RATEPLAN807,Season 4,BeachClubResort,SSBCR,1,2019-09-03,2019-10-14,"MONDAY,TUESDAY,WEDNESDAY,THURSDAY,FRIDAY,SATURDAY,SUNDAY",1,138,0,PERCENT,29.1749,
RATEPLAN808,Season 5,BeachClubResort,SSBCR,1,2019-10-15,2019-12-31,"MONDAY,TUESDAY,WEDNESDAY,THURSDAY,FRIDAY,SATURDAY,SUNDAY",1,104,0,PERCENT,29.6,
RATEPLAN809,Season 6,BeachClubResort,SSBCR,1,2020-01-01,2020-04-30,"MONDAY,TUESDAY,WEDNESDAY,THURSDAY,FRIDAY,SATURDAY,SUNDAY",1,106,0,PERCENT,29.6144,
RATEPLAN810,Season 1,BeachClubResort,SSOVBCR,1,2019-01-01,2019-04-30,"MONDAY,TUESDAY,WEDNESDAY,THURSDAY,FRIDAY,SATURDAY,SUNDAY",1,116,0,PERCENT,30.435,
RATEPLAN811,Season 2,BeachClubResort,SSOVBCR,1,2019-05-01,2019-06-20,"MONDAY,TUESDAY,WEDNESDAY,THURSDAY,FRIDAY,SATURDAY,SUNDAY",1,160,0,PERCENT,30.4364,
RATEPLAN812,Season 3,BeachClubResort,SSOVBCR,1,2019-06-21,2019-09-02,"MONDAY,TUESDAY,WEDNESDAY,THURSDAY,FRIDAY,SATURDAY,SUNDAY",1,240,0,PERCENT,30.0723,
RATEPLAN813,Season 4,BeachClubResort,SSOVBCR,1,2019-09-03,2019-10-14,"MONDAY,TUESDAY,WEDNESDAY,THURSDAY,FRIDAY,SATURDAY,SUNDAY",1,160,0,PERCENT,30.4364,
RATEPLAN814,Season 5,BeachClubResort,SSOVBCR,1,2019-10-15,2019-12-31,"MONDAY,TUESDAY,WEDNESDAY,THURSDAY,FRIDAY,SATURDAY,SUNDAY",1,118,0,PERCENT,28.9609,
RATEPLAN815,Season 6,BeachClubResort,SSOVBCR,1,2020-01-01,2020-04-30,"MONDAY,TUESDAY,WEDNESDAY,THURSDAY,FRIDAY,SATURDAY,SUNDAY",1,120,0,PERCENT,30.4321,
RATEPLAN816,Season 1,BeachClubResort,SSOFBCR,1,2019-01-01,2019-04-30,"MONDAY,TUESDAY,WEDNESDAY,THURSDAY,FRIDAY,SATURDAY,SUNDAY",1,140,0,PERCENT,29.8125,
RATEPLAN817,Season 2,BeachClubResort,SSOFBCR,1,2019-05-01,2019-06-20,"MONDAY,TUESDAY,WEDNESDAY,THURSDAY,FRIDAY,SATURDAY,SUNDAY",1,179,0,PERCENT,30.6788,
RATEPLAN818,Season 3,BeachClubResort,SSOFBCR,1,2019-06-21,2019-09-02,"MONDAY,TUESDAY,WEDNESDAY,THURSDAY,FRIDAY,SATURDAY,SUNDAY",1,247,0,PERCENT,29.9058,
RATEPLAN819,Season 4,BeachClubResort,SSOFBCR,1,2019-09-03,2019-10-14,"MONDAY,TUESDAY,WEDNESDAY,THURSDAY,FRIDAY,SATURDAY,SUNDAY",1,179,0,PERCENT,30.6788,
RATEPLAN820,Season 5,BeachClubResort,SSOFBCR,1,2019-10-15,2019-12-31,"MONDAY,TUESDAY,WEDNESDAY,THURSDAY,FRIDAY,SATURDAY,SUNDAY",1,142,0,PERCENT,28.598,
RATEPLAN821,Season 6,BeachClubResort,SSOFBCR,1,2020-01-01,2020-04-30,"MONDAY,TUESDAY,WEDNESDAY,THURSDAY,FRIDAY,SATURDAY,SUNDAY",1,144,0,PERCENT,29.832,
RATEPLAN822,Season 1,BeachClubResort,OBSBCR,1,2019-01-01,2019-04-30,"MONDAY,TUESDAY,WEDNESDAY,THURSDAY,FRIDAY,SATURDAY,SUNDAY",1,140,0,PERCENT,30.4375,
RATEPLAN823,Season 2,BeachClubResort,OBSBCR,1,2019-05-01,2019-06-20,"MONDAY,TUESDAY,WEDNESDAY,THURSDAY,FRIDAY,SATURDAY,SUNDAY",1,179,0,PERCENT,30.6788,
RATEPLAN824,Season 3,BeachClubResort,OBSBCR,1,2019-06-21,2019-09-02,"MONDAY,TUESDAY,WEDNESDAY,THURSDAY,FRIDAY,SATURDAY,SUNDAY",1,255,0,PERCENT,29.5807,
RATEPLAN825,Season 4,BeachClubResort,OBSBCR,1,2019-09-03,2019-10-14,"MONDAY,TUESDAY,WEDNESDAY,THURSDAY,FRIDAY,SATURDAY,SUNDAY",1,179,0,PERCENT,30.6788,
RATEPLAN826,Season 5,BeachClubResort,OBSBCR,1,2019-10-15,2019-12-31,"MONDAY,TUESDAY,WEDNESDAY,THURSDAY,FRIDAY,SATURDAY,SUNDAY",1,142,0,PERCENT,28.598,
RATEPLAN827,Season 6,BeachClubResort,OBSBCR,1,2020-01-01,2020-04-30,"MONDAY,TUESDAY,WEDNESDAY,THURSDAY,FRIDAY,SATURDAY,SUNDAY",1,144,0,PERCENT,29.832,
RATEPLAN828,Season 1,BeachClubResort,OBOVBCR,1,2019-01-01,2019-04-30,"MONDAY,TUESDAY,WEDNESDAY,THURSDAY,FRIDAY,SATURDAY,SUNDAY",1,154,0,PERCENT,29.8698,
RATEPLAN829,Season 2,BeachClubResort,OBOVBCR,1,2019-05-01,2019-06-20,"MONDAY,TUESDAY,WEDNESDAY,THURSDAY,FRIDAY,SATURDAY,SUNDAY",1,201,0,PERCENT,29.7857,
RATEPLAN830,Season 3,BeachClubResort,OBOVBCR,1,2019-06-21,2019-09-02,"MONDAY,TUESDAY,WEDNESDAY,THURSDAY,FRIDAY,SATURDAY,SUNDAY",1,282,0,PERCENT,29.5082,
RATEPLAN831,Season 4,BeachClubResort,OBOVBCR,1,2019-09-03,2019-10-14,"MONDAY,TUESDAY,WEDNESDAY,THURSDAY,FRIDAY,SATURDAY,SUNDAY",1,201,0,PERCENT,29.7857,
RATEPLAN832,Season 5,BeachClubResort,OBOVBCR,1,2019-10-15,2019-12-31,"MONDAY,TUESDAY,WEDNESDAY,THURSDAY,FRIDAY,SATURDAY,SUNDAY",1,156,0,PERCENT,29.3211,
RATEPLAN833,Season 6,BeachClubResort,OBOVBCR,1,2020-01-01,2020-04-30,"MONDAY,TUESDAY,WEDNESDAY,THURSDAY,FRIDAY,SATURDAY,SUNDAY",1,157,0,PERCENT,28.4941,
RATEPLAN834,Season 1,BeachClubResort,OBOFBCR,1,2019-01-01,2019-04-30,"MONDAY,TUESDAY,WEDNESDAY,THURSDAY,FRIDAY,SATURDAY,SUNDAY",1,217,0,PERCENT,30.2351,
RATEPLAN835,Season 2,BeachClubResort,OBOFBCR,1,2019-05-01,2019-06-20,"MONDAY,TUESDAY,WEDNESDAY,THURSDAY,FRIDAY,SATURDAY,SUNDAY",1,243,0,PERCENT,30.6145,
RATEPLAN836,Season 3,BeachClubResort,OBOFBCR,1,2019-06-21,2019-09-02,"MONDAY,TUESDAY,WEDNESDAY,THURSDAY,FRIDAY,SATURDAY,SUNDAY",1,322,0,PERCENT,29.6243,
RATEPLAN837,Season 4,BeachClubResort,OBOFBCR,1,2019-09-03,2019-10-14,"MONDAY,TUESDAY,WEDNESDAY,THURSDAY,FRIDAY,SATURDAY,SUNDAY",1,243,0,PERCENT,30.6145,
RATEPLAN838,Season 5,BeachClubResort,OBOFBCR,1,2019-10-15,2019-12-31,"MONDAY,TUESDAY,WEDNESDAY,THURSDAY,FRIDAY,SATURDAY,SUNDAY",1,219,0,PERCENT,30.236,
RATEPLAN839,Season 7,BeachClubResort,OBOFBCR,1,2020-01-01,2020-04-30,"MONDAY,TUESDAY,WEDNESDAY,THURSDAY,FRIDAY,SATURDAY,SUNDAY",1,223,0,PERCENT,29.4613,
RATEPLAN843,Season 1,SandmanSignaturePrinceGeorgeHotel,STQRSSPGH,1,2019-01-01,2019-04-30,"MONDAY,TUESDAY,WEDNESDAY,THURSDAY,FRIDAY,SATURDAY,SUNDAY",1,120,0,PERCENT,30.0255,
RATEPLAN844,Season 2,SandmanSignaturePrinceGeorgeHotel,STQRSSPGH,1,2019-05-01,2020-04-30,"MONDAY,TUESDAY,WEDNESDAY,THURSDAY,FRIDAY,SATURDAY,SUNDAY",1,135,0,PERCENT,23.8838,
RATEPLAN845,Season 1,SandmanInnSmithers,SRSIS,1,2019-01-01,2020-04-30,"MONDAY,TUESDAY,WEDNESDAY,THURSDAY,FRIDAY,SATURDAY,SUNDAY",1,100,0,PERCENT,25.2132,
RATEPLAN846,SEASON 1,SandmanHotelandSuitesSquamish,SRSHSS,1,2019-05-01,2020-04-30,"SUNDAY, MONDAY, TUESDAY, WEDNESDAY, THURSDAY",1,140,0,PERCENT,23.1517,
RATEPLAN847,Season 2 ,SandmanHotelandSuitesSquamish,SRSHSS,1,2019-05-01,2020-04-30,"FRIDAY,SATURDAY",1,160,0,PERCENT,23.3816,
RATEPLAN848,Season 1,SandmanInnTerrace,SRSIT,1,2019-01-01,2020-04-30,"MONDAY,TUESDAY,WEDNESDAY,THURSDAY,FRIDAY,SATURDAY,SUNDAY",1,100,0,PERCENT,28.321,
RATEPLAN849,Season 1,SandmanHotelVictoria,SRSHV,1,2019-01-01,2019-04-30,"MONDAY,TUESDAY,WEDNESDAY,THURSDAY,FRIDAY,SATURDAY,SUNDAY",1,90,0,PERCENT,24.5192,
RATEPLAN850,Season 2,SandmanHotelVictoria,SRSHV,1,2019-05-01,2019-05-31,"MONDAY,TUESDAY,WEDNESDAY,THURSDAY,FRIDAY,SATURDAY,SUNDAY",1,123,0,PERCENT,25.4561,
RATEPLAN851,Season 3,SandmanHotelVictoria,SRSHV,1,2019-06-01,2019-09-30,"MONDAY,TUESDAY,WEDNESDAY,THURSDAY,FRIDAY,SATURDAY,SUNDAY",1,171,0,PERCENT,25.5301,
RATEPLAN852,Season 4,SandmanHotelVictoria,SRSHV,1,2019-10-01,2020-04-30,"MONDAY,TUESDAY,WEDNESDAY,THURSDAY,FRIDAY,SATURDAY,SUNDAY",1,123,0,PERCENT,25.4561,
RATEPLAN853,Season 1,SandmanHotelandSuitesWilliamsLake,SRSHSWL,1,2019-01-01,2019-04-30,"MONDAY,TUESDAY,WEDNESDAY,THURSDAY,FRIDAY,SATURDAY,SUNDAY",1,87,0,PERCENT,36.302,
RATEPLAN854,Season 2,SandmanHotelandSuitesWilliamsLake,SRSHSWL,1,2019-05-01,2020-04-30,"MONDAY,TUESDAY,WEDNESDAY,THURSDAY,FRIDAY,SATURDAY,SUNDAY",1,101,0,PERCENT,27.0441,
RATEPLAN855,Season 1,RubyLakeResort,KCRLR,1,2019-01-01,2019-04-18,"MONDAY,TUESDAY,WEDNESDAY,THURSDAY,FRIDAY,SATURDAY,SUNDAY",,0,,,0,
RATEPLAN856,Season 2,RubyLakeResort,KCRLR,1,2019-04-19,2019-04-21,"MONDAY,TUESDAY,WEDNESDAY,THURSDAY,FRIDAY,SATURDAY,SUNDAY",,106,,,17.30678,
RATEPLAN857,Season 3,RubyLakeResort,KCRLR,1,2019-4-22,2019-04-30,"MONDAY,TUESDAY,WEDNESDAY,THURSDAY,FRIDAY,SATURDAY,SUNDAY",,93,,,17.81053,
RATEPLAN858,Season 4,RubyLakeResort,KCRLR,1,2019-05-01,2019-06-13,"MONDAY,TUESDAY,WEDNESDAY,THURSDAY,FRIDAY,SATURDAY,SUNDAY",,119,,,16.18383,
RATEPLAN859,Season 5,RubyLakeResort,KCRLR,1,2019-06-14,2019-06-27,"MONDAY,TUESDAY,WEDNESDAY,THURSDAY,FRIDAY,SATURDAY,SUNDAY",,153,,,18.78193,
RATEPLAN860,Season 6,RubyLakeResort,KCRLR,1,2019-06-28,2019-09-01,"MONDAY,TUESDAY,WEDNESDAY,THURSDAY,FRIDAY,SATURDAY,SUNDAY",,178,,,16.75457,
RATEPLAN861,Season 7,RubyLakeResort,KCRLR,1,2019-09-02,2019-09-30,"MONDAY,TUESDAY,WEDNESDAY,THURSDAY,FRIDAY,SATURDAY,SUNDAY",,119,,,16.18383,
RATEPLAN862,Season 8,RubyLakeResort,KCRLR,1,2019-10-01,2019-10-10,"MONDAY,TUESDAY,WEDNESDAY,THURSDAY,FRIDAY,SATURDAY,SUNDAY",,93,,,17.81053,
RATEPLAN863,Season 9,RubyLakeResort,KCRLR,1,2019-10-11,2019-10-13,"MONDAY,TUESDAY,WEDNESDAY,THURSDAY,FRIDAY,SATURDAY,SUNDAY",,106,,,17.30678,
RATEPLAN864,Season 10,RubyLakeResort,KCRLR,1,2019-10-14,2019-10-30,"MONDAY,TUESDAY,WEDNESDAY,THURSDAY,FRIDAY,SATURDAY,SUNDAY",,93,,,17.81053,
RATEPLAN865,Season 11,RubyLakeResort,KCRLR,1,2019-10-31,2020-04-09,"MONDAY,TUESDAY,WEDNESDAY,THURSDAY,FRIDAY,SATURDAY,SUNDAY",,0,,,0,
RATEPLAN866,Season 1,RubyLakeResort,DCKRLR,1,2019-01-01,2019-04-18,"MONDAY,TUESDAY,WEDNESDAY,THURSDAY,FRIDAY,SATURDAY,SUNDAY",,0,,,0,
RATEPLAN867,Season 2,RubyLakeResort,DCKRLR,1,2019-04-19,2019-04-21,"MONDAY,TUESDAY,WEDNESDAY,THURSDAY,FRIDAY,SATURDAY,SUNDAY",,123,,,18.76955,
RATEPLAN868,Season 3,RubyLakeResort,DCKRLR,1,2019-4-22,2019-04-30,"MONDAY,TUESDAY,WEDNESDAY,THURSDAY,FRIDAY,SATURDAY,SUNDAY",,110,,,17.78624,
RATEPLAN869,Season 4,RubyLakeResort,DCKRLR,1,2019-05-01,2019-06-13,"MONDAY,TUESDAY,WEDNESDAY,THURSDAY,FRIDAY,SATURDAY,SUNDAY",,136,,,17.00819,
RATEPLAN870,Season 5,RubyLakeResort,DCKRLR,1,2019-06-14,2019-06-27,"MONDAY,TUESDAY,WEDNESDAY,THURSDAY,FRIDAY,SATURDAY,SUNDAY",,170,,,17.64546,
RATEPLAN871,Season 6,RubyLakeResort,DCKRLR,1,2019-06-28,2019-09-01,"MONDAY,TUESDAY,WEDNESDAY,THURSDAY,FRIDAY,SATURDAY,SUNDAY",,187,,,15.78653,
RATEPLAN872,Season 7,RubyLakeResort,DCKRLR,1,2019-09-02,2019-09-30,"MONDAY,TUESDAY,WEDNESDAY,THURSDAY,FRIDAY,SATURDAY,SUNDAY",,136,,,17.00819,
RATEPLAN873,Season 8,RubyLakeResort,DCKRLR,1,2019-10-01,2019-10-10,"MONDAY,TUESDAY,WEDNESDAY,THURSDAY,FRIDAY,SATURDAY,SUNDAY",,110,,,17.78624,
RATEPLAN874,Season 9,RubyLakeResort,DCKRLR,1,2019-10-11,2019-10-13,"MONDAY,TUESDAY,WEDNESDAY,THURSDAY,FRIDAY,SATURDAY,SUNDAY",,123,,,18.76955,
RATEPLAN875,Season 10,RubyLakeResort,DCKRLR,1,2019-10-14,2019-10-30,"MONDAY,TUESDAY,WEDNESDAY,THURSDAY,FRIDAY,SATURDAY,SUNDAY",,110,,,17.78624,
RATEPLAN876,Season 11,RubyLakeResort,DCKRLR,1,2019-10-31,2020-04-09,"MONDAY,TUESDAY,WEDNESDAY,THURSDAY,FRIDAY,SATURDAY,SUNDAY",,0,,,0,
RATEPLAN877,Season 1,RubyLakeResort,STRLR,1,219-01-01,2019-04-30,"MONDAY,TUESDAY,WEDNESDAY,THURSDAY,FRIDAY,SATURDAY,SUNDAY",,0,,,0,
RATEPLAN878,Season 2,RubyLakeResort,STRLR,1,2019-05-01,2019-06-13,"MONDAY,TUESDAY,WEDNESDAY,THURSDAY,FRIDAY,SATURDAY,SUNDAY",,76,,,20.13981,
RATEPLAN879,Season 3,RubyLakeResort,STRLR,1,2019-06-14,2019-06-27,"MONDAY,TUESDAY,WEDNESDAY,THURSDAY,FRIDAY,SATURDAY,SUNDAY",,89,,,16.26902,
RATEPLAN880,Season 4,RubyLakeResort,STRLR,1,219-06-28,2019-09-01,"MONDAY,TUESDAY,WEDNESDAY,THURSDAY,FRIDAY,SATURDAY,SUNDAY",,102,,,18.50003,
RATEPLAN881,Season 5,RubyLakeResort,STRLR,1,2019-09-02,2019-09-30,"MONDAY,TUESDAY,WEDNESDAY,THURSDAY,FRIDAY,SATURDAY,SUNDAY",,76,,,20.13981,
RATEPLAN882,Season 6,RubyLakeResort,STRLR,1,2019-10-01,2020-04-09,"MONDAY,TUESDAY,WEDNESDAY,THURSDAY,FRIDAY,SATURDAY,SUNDAY",,0,,,0,